<?xml version="1.0" encoding="UTF-8" standalone="no"?>
<!-- Created with Inkscape (http://www.inkscape.org/) -->

<svg
   xmlns:dc="http://purl.org/dc/elements/1.1/"
   xmlns:cc="http://creativecommons.org/ns#"
   xmlns:rdf="http://www.w3.org/1999/02/22-rdf-syntax-ns#"
   xmlns:svg="http://www.w3.org/2000/svg"
   xmlns="http://www.w3.org/2000/svg"
   xmlns:sodipodi="http://sodipodi.sourceforge.net/DTD/sodipodi-0.dtd"
   xmlns:inkscape="http://www.inkscape.org/namespaces/inkscape"
   width="210mm"
   height="297mm"
   viewBox="0 0 210 297"
   version="1.1"
   id="svg8"
   inkscape:version="0.92.1 r15371"
   sodipodi:docname="E2_partages.svg">
  <defs
     id="defs2" />
  <sodipodi:namedview
     id="base"
     pagecolor="#ffffff"
     bordercolor="#666666"
     borderopacity="1.0"
     inkscape:pageopacity="0.0"
     inkscape:pageshadow="2"
     inkscape:zoom="0.41319603"
     inkscape:cx="655.87988"
     inkscape:cy="556.39795"
     inkscape:document-units="mm"
     inkscape:current-layer="layer1"
     showgrid="false"
     inkscape:window-width="1366"
     inkscape:window-height="704"
     inkscape:window-x="0"
     inkscape:window-y="27"
     inkscape:window-maximized="1" />
  <metadata
     id="metadata5">
    <rdf:RDF>
      <cc:Work
         rdf:about="">
        <dc:format>image/svg+xml</dc:format>
        <dc:type
           rdf:resource="http://purl.org/dc/dcmitype/StillImage" />
        <dc:title></dc:title>
      </cc:Work>
    </rdf:RDF>
  </metadata>
  <g
     inkscape:label="Calque 1"
     inkscape:groupmode="layer"
     id="layer1">
    <flowRoot
       xml:space="preserve"
       id="flowRoot10"
       style="fill:#000000;fill-opacity:0;stroke:none;font-family:sans-serif;font-style:normal;font-weight:normal;font-size:21.33333333px;line-height:1.25;letter-spacing:0px;word-spacing:0px;"><flowRegion
         id="flowRegion12"
         style="font-size:21.33333333px;fill:#000000;fill-opacity:0;"><rect
           id="rect14"
           width="662.85712"
           height="91.428574"
           x="71.428574"
           y="45.376827"
           style="font-size:21.33333333px;fill:#000000;fill-opacity:0;" /></flowRegion><flowPara
         id="flowPara16"></flowPara></flowRoot>    <flowRoot
       xml:space="preserve"
       id="flowRoot18"
       style="font-style:normal;font-weight:normal;font-size:21.33333397px;line-height:1.25;font-family:sans-serif;letter-spacing:0px;word-spacing:0px;fill:#000000;fill-opacity:1;stroke:none"
       transform="scale(0.26458333)"><flowRegion
         id="flowRegion20"
         style="font-size:21.33333397px"><rect
           id="rect22"
           width="645.71429"
           height="85.714287"
           x="82.85714"
           y="59.66254"
           style="font-size:21.33333397px" /></flowRegion><flowPara
         id="flowPara24">Exercice       --------------------------------     Partage de Mabawas</flowPara><flowPara
         id="flowPara26" /></flowRoot>    <flowRoot
       xml:space="preserve"
       id="flowRoot28"
       style="font-style:normal;font-weight:normal;font-size:18.66666603px;line-height:1.25;font-family:sans-serif;letter-spacing:0px;word-spacing:0px;fill:#000000;fill-opacity:1;stroke:none"
       transform="scale(0.26458333)"><flowRegion
         id="flowRegion30"><rect
           id="rect32"
           width="672.5451"
           height="112.94651"
           x="82.998566"
           y="89.743683" /></flowRegion><flowPara
         id="flowPara34">Nous sommes trois enfants, nous partageons des Mabawas, nous en avons autant chacun. Combien en avons-nous en tout?</flowPara></flowRoot>    <flowRoot
       xml:space="preserve"
       id="flowRoot36"
       style="fill:black;fill-opacity:1;stroke:none;font-family:sans-serif;font-style:normal;font-weight:normal;font-size:18.66666667px;line-height:1.25;letter-spacing:0px;word-spacing:0px"><flowRegion
         id="flowRegion38"><rect
           id="rect40"
           width="640.03021"
           height="69.308083"
           x="83.854225"
           y="60.651402" /></flowRegion><flowPara
         id="flowPara42"></flowPara></flowRoot>    <flowRoot
       transform="matrix(0.26458333,0,0,0.26458333,-0.37912743,30.467736)"
       xml:space="preserve"
       id="flowRoot18-3"
       style="font-style:normal;font-weight:normal;font-size:21.33333397px;line-height:1.25;font-family:sans-serif;letter-spacing:0px;word-spacing:0px;fill:#000000;fill-opacity:1;stroke:none"><flowRegion
         id="flowRegion20-6"
         style="font-size:21.33333397px"><rect
           id="rect22-7"
           width="645.71429"
           height="85.714287"
           x="82.85714"
           y="59.66254"
           style="font-size:21.33333397px" /></flowRegion><flowPara
         id="flowPara24-5">Exercice       --------------------------------     Partage de Mabawas</flowPara><flowPara
         id="flowPara26-3" /></flowRoot>    <flowRoot
       transform="matrix(0.26458333,0,0,0.26458333,-0.37912743,30.467736)"
       xml:space="preserve"
       id="flowRoot28-5"
       style="font-style:normal;font-weight:normal;font-size:18.66666603px;line-height:1.25;font-family:sans-serif;letter-spacing:0px;word-spacing:0px;fill:#000000;fill-opacity:1;stroke:none"><flowRegion
         id="flowRegion30-6"><rect
           id="rect32-2"
           width="672.5451"
           height="112.94651"
           x="82.998566"
           y="89.743683" /></flowRegion><flowPara
         id="flowPara34-9">Nous sommes trois enfants, nous partageons des Mabawas, nous en avons autant chacun. Combien en avons-nous en tout?</flowPara></flowRoot>    <flowRoot
       transform="matrix(0.26458333,0,0,0.26458333,-0.15273484,61.709851)"
       xml:space="preserve"
       id="flowRoot18-1"
       style="font-style:normal;font-weight:normal;font-size:21.33333397px;line-height:1.25;font-family:sans-serif;letter-spacing:0px;word-spacing:0px;fill:#000000;fill-opacity:1;stroke:none"><flowRegion
         id="flowRegion20-2"
         style="font-size:21.33333397px"><rect
           id="rect22-70"
           width="645.71429"
           height="85.714287"
           x="82.85714"
           y="59.66254"
           style="font-size:21.33333397px" /></flowRegion><flowPara
         id="flowPara24-9">Exercice       --------------------------------     Partage de Mabawas</flowPara><flowPara
         id="flowPara26-36" /></flowRoot>    <flowRoot
       transform="matrix(0.26458333,0,0,0.26458333,-0.15273484,61.709851)"
       xml:space="preserve"
       id="flowRoot28-0"
       style="font-style:normal;font-weight:normal;font-size:18.66666603px;line-height:1.25;font-family:sans-serif;letter-spacing:0px;word-spacing:0px;fill:#000000;fill-opacity:1;stroke:none"><flowRegion
         id="flowRegion30-62"><rect
           id="rect32-6"
           width="672.5451"
           height="112.94651"
           x="82.998566"
           y="89.743683" /></flowRegion><flowPara
         id="flowPara34-1">Nous sommes trois enfants, nous partageons des Mabawas, nous en avons autant chacun. Combien en avons-nous en tout?</flowPara></flowRoot>    <flowRoot
       transform="matrix(0.26458333,0,0,0.26458333,-0.6055199,95.668669)"
       xml:space="preserve"
       id="flowRoot18-8"
       style="font-style:normal;font-weight:normal;font-size:21.33333397px;line-height:1.25;font-family:sans-serif;letter-spacing:0px;word-spacing:0px;fill:#000000;fill-opacity:1;stroke:none"><flowRegion
         id="flowRegion20-7"
         style="font-size:21.33333397px"><rect
           id="rect22-9"
           width="645.71429"
           height="85.714287"
           x="82.85714"
           y="59.66254"
           style="font-size:21.33333397px" /></flowRegion><flowPara
         id="flowPara24-2">Exercice       --------------------------------     Partage de Mabawas</flowPara><flowPara
         id="flowPara26-0" /></flowRoot>    <flowRoot
       transform="matrix(0.26458333,0,0,0.26458333,-0.6055199,95.668669)"
       xml:space="preserve"
       id="flowRoot28-2"
       style="font-style:normal;font-weight:normal;font-size:18.66666603px;line-height:1.25;font-family:sans-serif;letter-spacing:0px;word-spacing:0px;fill:#000000;fill-opacity:1;stroke:none"><flowRegion
         id="flowRegion30-3"><rect
           id="rect32-7"
           width="672.5451"
           height="112.94651"
           x="82.998566"
           y="89.743683" /></flowRegion><flowPara
         id="flowPara34-5">Nous sommes trois enfants, nous partageons des Mabawas, nous en avons autant chacun. Combien en avons-nous en tout?</flowPara></flowRoot>    <flowRoot
       transform="matrix(0.26458333,0,0,0.26458333,-1.0583032,130.98584)"
       xml:space="preserve"
       id="flowRoot18-9"
       style="font-style:normal;font-weight:normal;font-size:21.33333397px;line-height:1.25;font-family:sans-serif;letter-spacing:0px;word-spacing:0px;fill:#000000;fill-opacity:1;stroke:none"><flowRegion
         id="flowRegion20-22"
         style="font-size:21.33333397px"><rect
           id="rect22-8"
           width="645.71429"
           height="85.714287"
           x="82.85714"
           y="59.66254"
           style="font-size:21.33333397px" /></flowRegion><flowPara
         id="flowPara24-97">Exercice       --------------------------------     Partage de Mabawas</flowPara><flowPara
         id="flowPara26-361" /></flowRoot>    <flowRoot
       transform="matrix(0.26458333,0,0,0.26458333,-1.0583032,130.98584)"
       xml:space="preserve"
       id="flowRoot28-29"
       style="font-style:normal;font-weight:normal;font-size:18.66666603px;line-height:1.25;font-family:sans-serif;letter-spacing:0px;word-spacing:0px;fill:#000000;fill-opacity:1;stroke:none"><flowRegion
         id="flowRegion30-31"><rect
           id="rect32-9"
           width="672.5451"
           height="112.94651"
           x="82.998566"
           y="89.743683" /></flowRegion><flowPara
         id="flowPara34-4">Nous sommes trois enfants, nous partageons des Mabawas, nous en avons autant chacun. Combien en avons-nous en tout?</flowPara></flowRoot>    <flowRoot
       transform="matrix(0.26458333,0,0,0.26458333,-0.60551919,168.11416)"
       xml:space="preserve"
       id="flowRoot18-7"
       style="font-style:normal;font-weight:normal;font-size:21.33333397px;line-height:1.25;font-family:sans-serif;letter-spacing:0px;word-spacing:0px;fill:#000000;fill-opacity:1;stroke:none"><flowRegion
         id="flowRegion20-8"
         style="font-size:21.33333397px"><rect
           id="rect22-4"
           width="645.71429"
           height="85.714287"
           x="82.85714"
           y="59.66254"
           style="font-size:21.33333397px" /></flowRegion><flowPara
         id="flowPara24-50">Exercice       --------------------------------     Partage de Mabawas</flowPara><flowPara
         id="flowPara26-3610" /></flowRoot>    <flowRoot
       transform="matrix(0.26458333,0,0,0.26458333,-0.60551919,168.11416)"
       xml:space="preserve"
       id="flowRoot28-6"
       style="font-style:normal;font-weight:normal;font-size:18.66666603px;line-height:1.25;font-family:sans-serif;letter-spacing:0px;word-spacing:0px;fill:#000000;fill-opacity:1;stroke:none"><flowRegion
         id="flowRegion30-32"><rect
           id="rect32-0"
           width="672.5451"
           height="112.94651"
           x="82.998566"
           y="89.743683" /></flowRegion><flowPara
         id="flowPara34-6">Nous sommes trois enfants, nous partageons des Mabawas, nous en avons autant chacun. Combien en avons-nous en tout?</flowPara></flowRoot>    <flowRoot
       transform="matrix(0.26458333,0,0,0.26458333,-0.83191109,206.14804)"
       xml:space="preserve"
       id="flowRoot18-15"
       style="font-style:normal;font-weight:normal;font-size:21.33333397px;line-height:1.25;font-family:sans-serif;letter-spacing:0px;word-spacing:0px;fill:#000000;fill-opacity:1;stroke:none"><flowRegion
         id="flowRegion20-5"
         style="font-size:21.33333397px"><rect
           id="rect22-47"
           width="645.71429"
           height="85.714287"
           x="82.85714"
           y="59.66254"
           style="font-size:21.33333397px" /></flowRegion><flowPara
         id="flowPara24-6">Exercice       --------------------------------     Partage de Mabawas</flowPara><flowPara
         id="flowPara26-5" /></flowRoot>    <flowRoot
       transform="matrix(0.26458333,0,0,0.26458333,-0.83191109,206.14804)"
       xml:space="preserve"
       id="flowRoot28-69"
       style="font-style:normal;font-weight:normal;font-size:18.66666603px;line-height:1.25;font-family:sans-serif;letter-spacing:0px;word-spacing:0px;fill:#000000;fill-opacity:1;stroke:none"><flowRegion
         id="flowRegion30-37"><rect
           id="rect32-4"
           width="672.5451"
           height="112.94651"
           x="82.998566"
           y="89.743683" /></flowRegion><flowPara
         id="flowPara34-52">Nous sommes trois enfants, nous partageons des Mabawas, nous en avons autant chacun. Combien en avons-nous en tout?</flowPara></flowRoot>    <flowRoot
       transform="matrix(0.26458333,0,0,0.26458333,-0.60551894,243.50274)"
       xml:space="preserve"
       id="flowRoot18-5"
       style="font-style:normal;font-weight:normal;font-size:21.33333397px;line-height:1.25;font-family:sans-serif;letter-spacing:0px;word-spacing:0px;fill:#000000;fill-opacity:1;stroke:none"><flowRegion
         id="flowRegion20-4"
         style="font-size:21.33333397px"><rect
           id="rect22-74"
           width="645.71429"
           height="85.714287"
           x="82.85714"
           y="59.66254"
           style="font-size:21.33333397px" /></flowRegion><flowPara
         id="flowPara24-4">Exercice       --------------------------------     Partage de Mabawas</flowPara><flowPara
         id="flowPara26-30" /></flowRoot>    <flowRoot
       transform="matrix(0.26458333,0,0,0.26458333,-0.60551894,243.50274)"
       xml:space="preserve"
       id="flowRoot28-7"
       style="font-style:normal;font-weight:normal;font-size:18.66666603px;line-height:1.25;font-family:sans-serif;letter-spacing:0px;word-spacing:0px;fill:#000000;fill-opacity:1;stroke:none"><flowRegion
         id="flowRegion30-8"><rect
           id="rect32-68"
           width="672.5451"
           height="112.94651"
           x="82.998566"
           y="89.743683" /></flowRegion><flowPara
         id="flowPara34-8">Nous sommes trois enfants, nous partageons des Mabawas, nous en avons autant chacun. Combien en avons-nous en tout?</flowPara></flowRoot>  </g>
</svg>
