<?xml version="1.0" encoding="UTF-8" standalone="no"?>
<!-- Created with Inkscape (http://www.inkscape.org/) -->

<svg
   xmlns:dc="http://purl.org/dc/elements/1.1/"
   xmlns:cc="http://creativecommons.org/ns#"
   xmlns:rdf="http://www.w3.org/1999/02/22-rdf-syntax-ns#"
   xmlns:svg="http://www.w3.org/2000/svg"
   xmlns="http://www.w3.org/2000/svg"
   xmlns:sodipodi="http://sodipodi.sourceforge.net/DTD/sodipodi-0.dtd"
   xmlns:inkscape="http://www.inkscape.org/namespaces/inkscape"
   width="297mm"
   height="210mm"
   viewBox="0 0 297 210"
   version="1.1"
   id="svg4362"
   inkscape:version="0.92.1 r15371"
   sodipodi:docname="E3_partages.svg">
  <defs
     id="defs4356" />
  <sodipodi:namedview
     id="base"
     pagecolor="#ffffff"
     bordercolor="#666666"
     borderopacity="1.0"
     inkscape:pageopacity="0.0"
     inkscape:pageshadow="2"
     inkscape:zoom="0.62860746"
     inkscape:cx="841.98911"
     inkscape:cy="448.30248"
     inkscape:document-units="mm"
     inkscape:current-layer="layer1"
     showgrid="false"
     inkscape:window-width="1366"
     inkscape:window-height="704"
     inkscape:window-x="0"
     inkscape:window-y="27"
     inkscape:window-maximized="1" />
  <metadata
     id="metadata4359">
    <rdf:RDF>
      <cc:Work
         rdf:about="">
        <dc:format>image/svg+xml</dc:format>
        <dc:type
           rdf:resource="http://purl.org/dc/dcmitype/StillImage" />
        <dc:title></dc:title>
      </cc:Work>
    </rdf:RDF>
  </metadata>
  <g
     inkscape:label="Calque 1"
     inkscape:groupmode="layer"
     id="layer1"
     transform="translate(0,-87)">
    <text
       xml:space="preserve"
       style="font-style:normal;font-weight:normal;font-size:6.3499999px;line-height:1.25;font-family:sans-serif;letter-spacing:0px;word-spacing:0px;fill:#000000;fill-opacity:1;stroke:none;stroke-width:0.26458332"
       x="39.821793"
       y="102.3539"
       id="text4587"><tspan
         sodipodi:role="line"
         id="tspan4585"
         x="39.821793"
         y="102.3539"
         style="stroke-width:0.26458332">Fractions et partages</tspan></text>
    <text
       xml:space="preserve"
       style="font-style:normal;font-weight:normal;font-size:4.23333311px;line-height:1.25;font-family:sans-serif;letter-spacing:0px;word-spacing:0px;fill:#000000;fill-opacity:1;stroke:none;stroke-width:0.26458332"
       x="16.415251"
       y="115.16952"
       id="text4718"><tspan
         sodipodi:role="line"
         x="16.415251"
         y="115.16952"
         style="stroke-width:0.26458332"
         id="tspan4720">Exercice 1:                </tspan><tspan
         sodipodi:role="line"
         x="16.415251"
         y="120.46118"
         style="stroke-width:0.26458332"
         id="tspan162">Un citron pèse 100 grammes. </tspan><tspan
         sodipodi:role="line"
         x="16.415251"
         y="125.75285"
         style="stroke-width:0.26458332"
         id="tspan4726">Combien pèse un demi citrons?</tspan><tspan
         sodipodi:role="line"
         x="16.415251"
         y="131.04451"
         style="stroke-width:0.26458332"
         id="tspan4839" /><tspan
         sodipodi:role="line"
         x="16.415251"
         y="136.33618"
         style="stroke-width:0.26458332"
         id="tspan4728">Exercice 2:</tspan><tspan
         sodipodi:role="line"
         x="16.415251"
         y="141.62785"
         style="stroke-width:0.26458332"
         id="tspan4730">Un coureur participe à une course de 30 km mais ne </tspan><tspan
         sodipodi:role="line"
         x="16.415251"
         y="146.91951"
         style="stroke-width:0.26458332"
         id="tspan4732">parcours qu'un tiers. Combien de km a-t-il parcouru?</tspan><tspan
         sodipodi:role="line"
         x="16.415251"
         y="152.21118"
         style="stroke-width:0.26458332"
         id="tspan4734" /><tspan
         sodipodi:role="line"
         x="16.415251"
         y="157.50285"
         style="stroke-width:0.26458332"
         id="tspan4841">Exercice 3:</tspan><tspan
         sodipodi:role="line"
         x="16.415251"
         y="162.79451"
         style="stroke-width:0.26458332"
         id="tspan4738">A Mayotte la moitié de la population a moins de 18 ans.</tspan><tspan
         sodipodi:role="line"
         x="16.415251"
         y="168.08618"
         style="stroke-width:0.26458332"
         id="tspan4740">Sachant qu'il y a environ 250 000 personnes sur l'ile, </tspan><tspan
         sodipodi:role="line"
         x="16.415251"
         y="173.37785"
         style="stroke-width:0.26458332"
         id="tspan4742">combien de personnes sont mineurs?</tspan><tspan
         sodipodi:role="line"
         x="16.415251"
         y="178.66951"
         style="stroke-width:0.26458332"
         id="tspan4744" /><tspan
         sodipodi:role="line"
         x="16.415251"
         y="183.96118"
         style="stroke-width:0.26458332"
         id="tspan4843">Exercice 4:</tspan><tspan
         sodipodi:role="line"
         x="16.415251"
         y="189.25285"
         style="stroke-width:0.26458332"
         id="tspan4746">Sayane a 60 euros dans sa poche. Il a dépensé les trois </tspan><tspan
         sodipodi:role="line"
         x="16.415251"
         y="194.54451"
         style="stroke-width:0.26458332"
         id="tspan4748">quart pour acheter des ballons de foot. Quel est le prix </tspan><tspan
         sodipodi:role="line"
         x="16.415251"
         y="199.83618"
         style="stroke-width:0.26458332"
         id="tspan93">des ballons?</tspan><tspan
         sodipodi:role="line"
         x="16.415251"
         y="205.12785"
         style="stroke-width:0.26458332"
         id="tspan4750" /><tspan
         sodipodi:role="line"
         x="16.415251"
         y="210.41951"
         style="stroke-width:0.26458332"
         id="tspan4736" /></text>
    <text
       xml:space="preserve"
       style="font-style:normal;font-weight:normal;font-size:4.23333311px;line-height:1.25;font-family:sans-serif;letter-spacing:0px;word-spacing:0px;fill:#000000;fill-opacity:1;stroke:none;stroke-width:0.26458332"
       x="17.431406"
       y="234.52463"
       id="text4760"><tspan
         sodipodi:role="line"
         x="17.431406"
         y="238.27014"
         style="stroke-width:0.26458332"
         id="tspan4794" /><tspan
         sodipodi:role="line"
         x="17.431406"
         y="243.5618"
         style="stroke-width:0.26458332"
         id="tspan4762" /></text>
    <text
       xml:space="preserve"
       style="font-style:normal;font-weight:normal;font-size:4.23333311px;line-height:1.25;font-family:sans-serif;letter-spacing:0px;word-spacing:0px;fill:#000000;fill-opacity:1;stroke:none;stroke-width:0.26458332"
       x="119.94247"
       y="256.52313"
       id="text4798"><tspan
         sodipodi:role="line"
         id="tspan4796"
         x="119.94247"
         y="260.26865"
         style="stroke-width:0.26458332" /></text>
    <text
       xml:space="preserve"
       style="font-style:normal;font-weight:normal;font-size:4.23333311px;line-height:1.25;font-family:sans-serif;letter-spacing:0px;word-spacing:0px;fill:#000000;fill-opacity:1;stroke:none;stroke-width:0.26458332"
       x="42.560234"
       y="259.20175"
       id="text4802"><tspan
         sodipodi:role="line"
         id="tspan4800"
         x="42.560234"
         y="259.20175"
         style="stroke-width:0.26458332" /></text>
    <text
       xml:space="preserve"
       style="font-style:normal;font-weight:normal;font-size:4.23333311px;line-height:1.25;font-family:sans-serif;letter-spacing:0px;word-spacing:0px;fill:#000000;fill-opacity:1;stroke:none;stroke-width:0.26458332"
       x="189.81337"
       y="259.54309"
       id="text4802-2"><tspan
         sodipodi:role="line"
         id="tspan4800-4"
         x="189.81337"
         y="263.2886"
         style="stroke-width:0.26458332" /></text>
    <text
       xml:space="preserve"
       style="font-style:normal;font-weight:normal;font-size:4.93888855px;line-height:1.25;font-family:sans-serif;letter-spacing:0px;word-spacing:0px;fill:#000000;fill-opacity:1;stroke:none;stroke-width:0.26458332"
       x="16.625706"
       y="202.50708"
       id="text106"><tspan
         sodipodi:role="line"
         id="tspan104"
         x="16.625706"
         y="206.87685"
         style="stroke-width:0.26458332" /><tspan
         sodipodi:role="line"
         x="16.625706"
         y="213.05045"
         style="font-size:4.23333311px;stroke-width:0.26458332"
         id="tspan108">Exercice 5:</tspan><tspan
         sodipodi:role="line"
         x="16.625706"
         y="219.22406"
         style="font-size:4.23333311px;stroke-width:0.26458332"
         id="tspan110">3 coéquipiers participent à une course de relais de 10 km, </tspan><tspan
         sodipodi:role="line"
         x="16.625706"
         y="225.39767"
         style="font-size:4.23333311px;stroke-width:0.26458332"
         id="tspan112">le premier parcours la moitié, le second parcours le quart </tspan><tspan
         sodipodi:role="line"
         x="16.625706"
         y="231.57129"
         style="font-size:4.23333311px;stroke-width:0.26458332"
         id="tspan114">et le troisième parcours un quart aussi.  Combien de km</tspan><tspan
         sodipodi:role="line"
         x="16.625706"
         y="237.74489"
         style="font-size:4.23333311px;stroke-width:0.26458332"
         id="tspan116">ont-ils couru chacun?</tspan></text>
    <text
       xml:space="preserve"
       style="font-style:normal;font-weight:normal;font-size:4.23333311px;line-height:1.25;font-family:sans-serif;letter-spacing:0px;word-spacing:0px;fill:#000000;fill-opacity:1;stroke:none;stroke-width:0.26458332"
       x="16.625702"
       y="241.65112"
       id="text166"><tspan
         sodipodi:role="line"
         id="tspan164"
         x="16.625702"
         y="245.39664"
         style="font-size:4.23333311px;stroke-width:0.26458332"></tspan><tspan
         sodipodi:role="line"
         x="16.625702"
         y="250.68829"
         style="font-size:4.23333311px;stroke-width:0.26458332"
         id="tspan168">Exercice 6: Problème:</tspan><tspan
         sodipodi:role="line"
         x="16.625702"
         y="255.97997"
         style="font-size:4.23333311px;stroke-width:0.26458332"
         id="tspan170">1. Un crayon coûte 0,30 euros. Combien peut-on</tspan><tspan
         sodipodi:role="line"
         x="16.625702"
         y="261.27164"
         style="font-size:4.23333311px;stroke-width:0.26458332"
         id="tspan172">acheter de crayons avec 9 euros?</tspan><tspan
         sodipodi:role="line"
         x="16.625702"
         y="266.56329"
         style="font-size:4.23333311px;stroke-width:0.26458332"
         id="tspan174">2. Vingt litres d'eau coûtent 6 euros, quel est le prix</tspan><tspan
         sodipodi:role="line"
         x="16.625702"
         y="271.85495"
         style="font-size:4.23333311px;stroke-width:0.26458332"
         id="tspan176">d'un litre d'eau?</tspan></text>
    <text
       xml:space="preserve"
       style="font-style:normal;font-weight:normal;font-size:6.3499999px;line-height:1.25;font-family:sans-serif;letter-spacing:0px;word-spacing:0px;fill:#000000;fill-opacity:1;stroke:none;stroke-width:0.26458332"
       x="182.39644"
       y="101.40859"
       id="text4587-3"><tspan
         sodipodi:role="line"
         id="tspan4585-6"
         x="182.39644"
         y="101.40859"
         style="stroke-width:0.26458332">Fractions et partages</tspan></text>
    <text
       xml:space="preserve"
       style="font-style:normal;font-weight:normal;font-size:4.23333311px;line-height:1.25;font-family:sans-serif;letter-spacing:0px;word-spacing:0px;fill:#000000;fill-opacity:1;stroke:none;stroke-width:0.26458332"
       x="158.9899"
       y="114.22421"
       id="text4718-7"><tspan
         sodipodi:role="line"
         x="158.9899"
         y="114.22421"
         style="stroke-width:0.26458332"
         id="tspan4720-5">Exercice 1:                </tspan><tspan
         sodipodi:role="line"
         x="158.9899"
         y="119.51588"
         style="stroke-width:0.26458332"
         id="tspan162-3">Un citron pèse 100 grammes. </tspan><tspan
         sodipodi:role="line"
         x="158.9899"
         y="124.80755"
         style="stroke-width:0.26458332"
         id="tspan4726-5">Combien pèse un demi citrons?</tspan><tspan
         sodipodi:role="line"
         x="158.9899"
         y="130.09921"
         style="stroke-width:0.26458332"
         id="tspan4839-6" /><tspan
         sodipodi:role="line"
         x="158.9899"
         y="135.39088"
         style="stroke-width:0.26458332"
         id="tspan4728-2">Exercice 2:</tspan><tspan
         sodipodi:role="line"
         x="158.9899"
         y="140.68254"
         style="stroke-width:0.26458332"
         id="tspan4730-9">Un coureur participe à une course de 30 km mais ne </tspan><tspan
         sodipodi:role="line"
         x="158.9899"
         y="145.97421"
         style="stroke-width:0.26458332"
         id="tspan4732-1">parcours qu'un tiers. Combien de km a-t-il parcouru?</tspan><tspan
         sodipodi:role="line"
         x="158.9899"
         y="151.26588"
         style="stroke-width:0.26458332"
         id="tspan4734-2" /><tspan
         sodipodi:role="line"
         x="158.9899"
         y="156.55756"
         style="stroke-width:0.26458332"
         id="tspan4841-7">Exercice 3:</tspan><tspan
         sodipodi:role="line"
         x="158.9899"
         y="161.84921"
         style="stroke-width:0.26458332"
         id="tspan4738-0">A Mayotte la moitié de la population a moins de 18 ans.</tspan><tspan
         sodipodi:role="line"
         x="158.9899"
         y="167.14088"
         style="stroke-width:0.26458332"
         id="tspan4740-9">Sachant qu'il y a environ 250 000 personnes sur l'ile, </tspan><tspan
         sodipodi:role="line"
         x="158.9899"
         y="172.43256"
         style="stroke-width:0.26458332"
         id="tspan4742-3">combien de personnes sont mineurs?</tspan><tspan
         sodipodi:role="line"
         x="158.9899"
         y="177.72421"
         style="stroke-width:0.26458332"
         id="tspan4744-6" /><tspan
         sodipodi:role="line"
         x="158.9899"
         y="183.01588"
         style="stroke-width:0.26458332"
         id="tspan4843-0">Exercice 4:</tspan><tspan
         sodipodi:role="line"
         x="158.9899"
         y="188.30756"
         style="stroke-width:0.26458332"
         id="tspan4746-6">Sayane a 60 euros dans sa poche. Il a dépensé les trois </tspan><tspan
         sodipodi:role="line"
         x="158.9899"
         y="193.59921"
         style="stroke-width:0.26458332"
         id="tspan4748-2">quart pour acheter des ballons de foot. Quel est le prix </tspan><tspan
         sodipodi:role="line"
         x="158.9899"
         y="198.89088"
         style="stroke-width:0.26458332"
         id="tspan93-6">des ballons?</tspan><tspan
         sodipodi:role="line"
         x="158.9899"
         y="204.18256"
         style="stroke-width:0.26458332"
         id="tspan4750-1" /><tspan
         sodipodi:role="line"
         x="158.9899"
         y="209.47421"
         style="stroke-width:0.26458332"
         id="tspan4736-8" /></text>
    <text
       xml:space="preserve"
       style="font-style:normal;font-weight:normal;font-size:4.93888855px;line-height:1.25;font-family:sans-serif;letter-spacing:0px;word-spacing:0px;fill:#000000;fill-opacity:1;stroke:none;stroke-width:0.26458332"
       x="159.20036"
       y="201.56178"
       id="text106-7"><tspan
         sodipodi:role="line"
         id="tspan104-9"
         x="159.20036"
         y="205.93155"
         style="stroke-width:0.26458332" /><tspan
         sodipodi:role="line"
         x="159.20036"
         y="212.10515"
         style="font-size:4.23333311px;stroke-width:0.26458332"
         id="tspan108-2">Exercice 5:</tspan><tspan
         sodipodi:role="line"
         x="159.20036"
         y="218.27876"
         style="font-size:4.23333311px;stroke-width:0.26458332"
         id="tspan110-0">3 coéquipiers participent à une course de relais de 10 km, </tspan><tspan
         sodipodi:role="line"
         x="159.20036"
         y="224.45238"
         style="font-size:4.23333311px;stroke-width:0.26458332"
         id="tspan112-2">le premier parcours la moitié, le second parcours le quart </tspan><tspan
         sodipodi:role="line"
         x="159.20036"
         y="230.62599"
         style="font-size:4.23333311px;stroke-width:0.26458332"
         id="tspan114-3">et le troisième parcours un quart aussi.  Combien de km</tspan><tspan
         sodipodi:role="line"
         x="159.20036"
         y="236.79959"
         style="font-size:4.23333311px;stroke-width:0.26458332"
         id="tspan116-7">ont-ils couru chacun?</tspan></text>
    <text
       xml:space="preserve"
       style="font-style:normal;font-weight:normal;font-size:4.23333311px;line-height:1.25;font-family:sans-serif;letter-spacing:0px;word-spacing:0px;fill:#000000;fill-opacity:1;stroke:none;stroke-width:0.26458332"
       x="159.20035"
       y="240.70584"
       id="text166-5"><tspan
         sodipodi:role="line"
         id="tspan164-9"
         x="159.20035"
         y="244.45135"
         style="font-size:4.23333311px;stroke-width:0.26458332" /><tspan
         sodipodi:role="line"
         x="159.20035"
         y="249.74301"
         style="font-size:4.23333311px;stroke-width:0.26458332"
         id="tspan168-2">Exercice 6: Problème:</tspan><tspan
         sodipodi:role="line"
         x="159.20035"
         y="255.03468"
         style="font-size:4.23333311px;stroke-width:0.26458332"
         id="tspan170-2">1. Un crayon coûte 0,30 euros. Combien peut-on</tspan><tspan
         sodipodi:role="line"
         x="159.20035"
         y="260.32635"
         style="font-size:4.23333311px;stroke-width:0.26458332"
         id="tspan172-8">acheter de crayons avec 9 euros?</tspan><tspan
         sodipodi:role="line"
         x="159.20035"
         y="265.61801"
         style="font-size:4.23333311px;stroke-width:0.26458332"
         id="tspan174-9">2. Vingt litres d'eau coûtent 6 euros, quel est le prix</tspan><tspan
         sodipodi:role="line"
         x="159.20035"
         y="270.90967"
         style="font-size:4.23333311px;stroke-width:0.26458332"
         id="tspan176-7">d'un litre d'eau?</tspan></text>
  </g>
</svg>
