<?xml version="1.0" encoding="UTF-8" standalone="no"?>
<!-- Created with Inkscape (http://www.inkscape.org/) -->

<svg
   xmlns:dc="http://purl.org/dc/elements/1.1/"
   xmlns:cc="http://creativecommons.org/ns#"
   xmlns:rdf="http://www.w3.org/1999/02/22-rdf-syntax-ns#"
   xmlns:svg="http://www.w3.org/2000/svg"
   xmlns="http://www.w3.org/2000/svg"
   xmlns:sodipodi="http://sodipodi.sourceforge.net/DTD/sodipodi-0.dtd"
   xmlns:inkscape="http://www.inkscape.org/namespaces/inkscape"
   width="210mm"
   height="297mm"
   viewBox="0 0 210 297"
   version="1.1"
   id="svg6349"
   sodipodi:docname="E3 bis.svg"
   inkscape:version="0.92.1 r15371">
  <defs
     id="defs6343" />
  <sodipodi:namedview
     id="base"
     pagecolor="#ffffff"
     bordercolor="#666666"
     borderopacity="1.0"
     inkscape:pageopacity="0.0"
     inkscape:pageshadow="2"
     inkscape:zoom="0.49497475"
     inkscape:cx="282.40397"
     inkscape:cy="597.49836"
     inkscape:document-units="mm"
     inkscape:current-layer="layer1"
     showgrid="false"
     inkscape:window-width="1366"
     inkscape:window-height="704"
     inkscape:window-x="0"
     inkscape:window-y="27"
     inkscape:window-maximized="1" />
  <metadata
     id="metadata6346">
    <rdf:RDF>
      <cc:Work
         rdf:about="">
        <dc:format>image/svg+xml</dc:format>
        <dc:type
           rdf:resource="http://purl.org/dc/dcmitype/StillImage" />
        <dc:title />
      </cc:Work>
    </rdf:RDF>
  </metadata>
  <g
     inkscape:label="Calque 1"
     inkscape:groupmode="layer"
     id="layer1">
    <text
       xml:space="preserve"
       style="font-style:normal;font-weight:normal;font-size:4.93888855px;line-height:1.25;font-family:sans-serif;letter-spacing:0px;word-spacing:0px;fill:#000000;fill-opacity:0.47222221;stroke:none;stroke-width:0.26458332;"
       x="38.071014"
       y="18.003077"
       id="text4561"><tspan
         sodipodi:role="line"
         id="tspan4559"
         x="38.071014"
         y="18.003077"
         style="stroke-width:0.26458332;fill:#000000;fill-opacity:0.47222221;">Classer ces figures de la plus grande à la plus petite</tspan></text>
    <rect
       style="opacity:1;fill:#000000;fill-opacity:0.47222221;fill-rule:nonzero;stroke:#000000;stroke-width:0.32900001;stroke-miterlimit:4;stroke-dasharray:none;stroke-dashoffset:3.29;stroke-opacity:0.39215687"
       id="rect6369"
       width="9.6709023"
       height="9.6709023"
       x="26.741501"
       y="33.675766" />
    <rect
       style="opacity:1;fill:#000000;fill-opacity:0.47222221;fill-rule:nonzero;stroke:#000000;stroke-width:0.329;stroke-miterlimit:4;stroke-dasharray:none;stroke-dashoffset:3.28999996;stroke-opacity:0.39215686"
       id="rect6369-0"
       width="9.6709023"
       height="9.6709023"
       x="26.741501"
       y="43.346668" />
    <rect
       style="opacity:1;fill:#000000;fill-opacity:0.47222221;fill-rule:nonzero;stroke:#000000;stroke-width:0.329;stroke-miterlimit:4;stroke-dasharray:none;stroke-dashoffset:3.28999996;stroke-opacity:0.39215686"
       id="rect6369-5"
       width="9.6709023"
       height="9.6709023"
       x="26.741503"
       y="53.01757" />
    <rect
       style="opacity:1;fill:#000000;fill-opacity:0.47222221;fill-rule:nonzero;stroke:#000000;stroke-width:0.329;stroke-miterlimit:4;stroke-dasharray:none;stroke-dashoffset:3.28999996;stroke-opacity:0.39215686"
       id="rect6369-52"
       width="9.6709023"
       height="9.6709023"
       x="26.741503"
       y="62.688473" />
    <rect
       style="opacity:1;fill:#000000;fill-opacity:0.47222221;fill-rule:nonzero;stroke:#000000;stroke-width:0.329;stroke-miterlimit:4;stroke-dasharray:none;stroke-dashoffset:3.28999996;stroke-opacity:0.39215686"
       id="rect6369-9"
       width="9.6709023"
       height="9.6709023"
       x="36.412403"
       y="33.675766" />
    <rect
       style="opacity:1;fill:#000000;fill-opacity:0.47222221;fill-rule:nonzero;stroke:#000000;stroke-width:0.329;stroke-miterlimit:4;stroke-dasharray:none;stroke-dashoffset:3.28999996;stroke-opacity:0.39215686"
       id="rect6369-02"
       width="9.6709023"
       height="9.6709023"
       x="36.412403"
       y="43.346668" />
    <rect
       style="opacity:1;fill:#000000;fill-opacity:0.47222221;fill-rule:nonzero;stroke:#000000;stroke-width:0.329;stroke-miterlimit:4;stroke-dasharray:none;stroke-dashoffset:3.28999996;stroke-opacity:0.39215686"
       id="rect6369-8"
       width="9.6709023"
       height="9.6709023"
       x="36.412403"
       y="53.01757"
       inkscape:transform-center-x="-5.078121"
       inkscape:transform-center-y="24.588797" />
    <rect
       style="opacity:1;fill:#000000;fill-opacity:0.47222221;fill-rule:nonzero;stroke:#000000;stroke-width:0.329;stroke-miterlimit:4;stroke-dasharray:none;stroke-dashoffset:3.28999996;stroke-opacity:0.39215686"
       id="rect6369-3"
       width="9.6709023"
       height="9.6709023"
       x="36.412407"
       y="62.688473" />
    <rect
       style="opacity:1;fill:#000000;fill-opacity:0.47222221;fill-rule:nonzero;stroke:#000000;stroke-width:0.329;stroke-miterlimit:4;stroke-dasharray:none;stroke-dashoffset:3.28999996;stroke-opacity:0.39215686"
       id="rect6369-80"
       width="9.6709023"
       height="9.6709023"
       x="46.083305"
       y="33.675766" />
    <rect
       style="opacity:1;fill:#000000;fill-opacity:0.47222221;fill-rule:nonzero;stroke:#000000;stroke-width:0.329;stroke-miterlimit:4;stroke-dasharray:none;stroke-dashoffset:3.28999996;stroke-opacity:0.39215686"
       id="rect6369-4"
       width="9.6709023"
       height="9.6709023"
       x="46.083305"
       y="43.346668" />
    <rect
       style="opacity:1;fill:#000000;fill-opacity:0.47222221;fill-rule:nonzero;stroke:#000000;stroke-width:0.329;stroke-miterlimit:4;stroke-dasharray:none;stroke-dashoffset:3.28999996;stroke-opacity:0.39215686"
       id="rect6369-09"
       width="9.6709023"
       height="9.6709023"
       x="46.083305"
       y="53.01757" />
    <rect
       style="opacity:1;fill:#000000;fill-opacity:0.47222221;fill-rule:nonzero;stroke:#000000;stroke-width:0.329;stroke-miterlimit:4;stroke-dasharray:none;stroke-dashoffset:3.28999996;stroke-opacity:0.39215686"
       id="rect6369-1"
       width="9.6709023"
       height="9.6709023"
       x="46.083305"
       y="62.688473" />
    <rect
       style="opacity:1;fill:#000000;fill-opacity:0.47222221;fill-rule:nonzero;stroke:#000000;stroke-width:0.329;stroke-miterlimit:4;stroke-dasharray:none;stroke-dashoffset:3.28999996;stroke-opacity:0.39215686"
       id="rect6369-96"
       width="9.6709023"
       height="9.6709023"
       x="73.207253"
       y="28.102255" />
    <rect
       style="opacity:1;fill:#000000;fill-opacity:0.47222221;fill-rule:nonzero;stroke:#000000;stroke-width:0.329;stroke-miterlimit:4;stroke-dasharray:none;stroke-dashoffset:3.28999996;stroke-opacity:0.39215686"
       id="rect6369-2"
       width="9.6709023"
       height="9.6709023"
       x="82.878159"
       y="28.102255" />
    <rect
       style="opacity:1;fill:#000000;fill-opacity:0.47222221;fill-rule:nonzero;stroke:#000000;stroke-width:0.329;stroke-miterlimit:4;stroke-dasharray:none;stroke-dashoffset:3.28999996;stroke-opacity:0.39215686"
       id="rect6369-54"
       width="9.6709023"
       height="9.6709023"
       x="92.549057"
       y="28.102253" />
    <rect
       style="opacity:1;fill:#000000;fill-opacity:0.47222221;fill-rule:nonzero;stroke:#000000;stroke-width:0.329;stroke-miterlimit:4;stroke-dasharray:none;stroke-dashoffset:3.28999996;stroke-opacity:0.39215686"
       id="rect6369-49"
       width="9.6709023"
       height="9.6709023"
       x="102.21996"
       y="28.102255" />
    <rect
       style="opacity:1;fill:#000000;fill-opacity:0.47222221;fill-rule:nonzero;stroke:#000000;stroke-width:0.329;stroke-miterlimit:4;stroke-dasharray:none;stroke-dashoffset:3.28999996;stroke-opacity:0.39215686"
       id="rect6369-93"
       width="9.6709023"
       height="9.6709023"
       x="111.89087"
       y="28.102253" />
    <rect
       style="opacity:1;fill:#000000;fill-opacity:0.47222221;fill-rule:nonzero;stroke:#000000;stroke-width:0.329;stroke-miterlimit:4;stroke-dasharray:none;stroke-dashoffset:3.28999996;stroke-opacity:0.39215686"
       id="rect6369-6"
       width="9.6709023"
       height="9.6709023"
       x="121.56177"
       y="28.102253" />
    <rect
       style="opacity:1;fill:#000000;fill-opacity:0.47222221;fill-rule:nonzero;stroke:#000000;stroke-width:0.329;stroke-miterlimit:4;stroke-dasharray:none;stroke-dashoffset:3.28999996;stroke-opacity:0.39215686"
       id="rect6369-05"
       width="9.6709023"
       height="9.6709023"
       x="73.20726"
       y="37.773155" />
    <rect
       style="opacity:1;fill:#000000;fill-opacity:0.47222221;fill-rule:nonzero;stroke:#000000;stroke-width:0.329;stroke-miterlimit:4;stroke-dasharray:none;stroke-dashoffset:3.28999996;stroke-opacity:0.39215686"
       id="rect6369-029"
       width="9.6709023"
       height="9.6709023"
       x="82.878159"
       y="37.773155" />
    <rect
       style="opacity:1;fill:#000000;fill-opacity:0.47222221;fill-rule:nonzero;stroke:#000000;stroke-width:0.329;stroke-miterlimit:4;stroke-dasharray:none;stroke-dashoffset:3.28999996;stroke-opacity:0.39215686"
       id="rect6369-43"
       width="9.6709023"
       height="9.6709023"
       x="92.549057"
       y="37.773155" />
    <rect
       style="opacity:1;fill:#000000;fill-opacity:0.47222221;fill-rule:nonzero;stroke:#000000;stroke-width:0.329;stroke-miterlimit:4;stroke-dasharray:none;stroke-dashoffset:3.28999996;stroke-opacity:0.39215686"
       id="rect6369-51"
       width="9.6709023"
       height="9.6709023"
       x="102.21996"
       y="37.773155" />
    <rect
       style="opacity:1;fill:#000000;fill-opacity:0.47222221;fill-rule:nonzero;stroke:#000000;stroke-width:0.329;stroke-miterlimit:4;stroke-dasharray:none;stroke-dashoffset:3.28999996;stroke-opacity:0.39215686"
       id="rect6369-7"
       width="9.6709023"
       height="9.6709023"
       x="111.89087"
       y="37.773155" />
    <rect
       style="opacity:1;fill:#000000;fill-opacity:0.47222221;fill-rule:nonzero;stroke:#000000;stroke-width:0.329;stroke-miterlimit:4;stroke-dasharray:none;stroke-dashoffset:3.28999996;stroke-opacity:0.39215686"
       id="rect6369-431"
       width="9.6709023"
       height="9.6709023"
       x="121.56177"
       y="37.773155" />
    <rect
       style="opacity:1;fill:#000000;fill-opacity:0.47222221;fill-rule:nonzero;stroke:#000000;stroke-width:0.329;stroke-miterlimit:4;stroke-dasharray:none;stroke-dashoffset:3.28999996;stroke-opacity:0.39215686"
       id="rect6369-46"
       width="9.6709023"
       height="9.6709023"
       x="151.24995"
       y="23.558674" />
    <rect
       style="opacity:1;fill:#000000;fill-opacity:0.47222221;fill-rule:nonzero;stroke:#000000;stroke-width:0.329;stroke-miterlimit:4;stroke-dasharray:none;stroke-dashoffset:3.28999996;stroke-opacity:0.39215686"
       id="rect6369-94"
       width="9.6709023"
       height="9.6709023"
       x="151.24995"
       y="33.229576" />
    <rect
       style="opacity:1;fill:#000000;fill-opacity:0.47222221;fill-rule:nonzero;stroke:#000000;stroke-width:0.329;stroke-miterlimit:4;stroke-dasharray:none;stroke-dashoffset:3.28999996;stroke-opacity:0.39215686"
       id="rect6369-22"
       width="9.6709023"
       height="9.6709023"
       x="160.92085"
       y="33.229576" />
    <rect
       style="opacity:1;fill:#000000;fill-opacity:0.47222221;fill-rule:nonzero;stroke:#000000;stroke-width:0.329;stroke-miterlimit:4;stroke-dasharray:none;stroke-dashoffset:3.28999996;stroke-opacity:0.39215686"
       id="rect6369-64"
       width="9.6709023"
       height="9.6709023"
       x="170.59175"
       y="33.229576" />
    <rect
       style="opacity:1;fill:#000000;fill-opacity:0.47222221;fill-rule:nonzero;stroke:#000000;stroke-width:0.329;stroke-miterlimit:4;stroke-dasharray:none;stroke-dashoffset:3.28999996;stroke-opacity:0.39215686"
       id="rect6369-12"
       width="9.6709023"
       height="9.6709023"
       x="151.24995"
       y="42.900478" />
    <rect
       style="opacity:1;fill:#000000;fill-opacity:0.47222221;fill-rule:nonzero;stroke:#000000;stroke-width:0.329;stroke-miterlimit:4;stroke-dasharray:none;stroke-dashoffset:3.28999996;stroke-opacity:0.39215686"
       id="rect6369-88"
       width="9.6709023"
       height="9.6709023"
       x="151.24995"
       y="52.571381" />
    <rect
       style="opacity:1;fill:#000000;fill-opacity:0.47222221;fill-rule:nonzero;stroke:#000000;stroke-width:0.329;stroke-miterlimit:4;stroke-dasharray:none;stroke-dashoffset:3.28999996;stroke-opacity:0.39215686"
       id="rect6369-92"
       width="9.6709023"
       height="9.6709023"
       x="151.24995"
       y="62.242283" />
    <rect
       style="opacity:1;fill:#000000;fill-opacity:0.47222221;fill-rule:nonzero;stroke:#000000;stroke-width:0.329;stroke-miterlimit:4;stroke-dasharray:none;stroke-dashoffset:3.28999996;stroke-opacity:0.39215686"
       id="rect6369-888"
       width="9.6709023"
       height="9.6709023"
       x="141.57906"
       y="52.571384" />
    <rect
       style="opacity:1;fill:#000000;fill-opacity:0.47222221;fill-rule:nonzero;stroke:#000000;stroke-width:0.329;stroke-miterlimit:4;stroke-dasharray:none;stroke-dashoffset:3.28999996;stroke-opacity:0.39215686"
       id="rect6369-68"
       width="9.6709023"
       height="9.6709023"
       x="160.92085"
       y="62.242283" />
    <rect
       style="opacity:1;fill:#000000;fill-opacity:0.47222221;fill-rule:nonzero;stroke:#000000;stroke-width:0.329;stroke-miterlimit:4;stroke-dasharray:none;stroke-dashoffset:3.28999996;stroke-opacity:0.39215686"
       id="rect6369-38"
       width="9.6709023"
       height="9.6709023"
       x="170.59175"
       y="62.242287" />
    <rect
       style="opacity:1;fill:#000000;fill-opacity:0.47222221;fill-rule:nonzero;stroke:#000000;stroke-width:0.329;stroke-miterlimit:4;stroke-dasharray:none;stroke-dashoffset:3.28999996;stroke-opacity:0.39215686"
       id="rect6369-33"
       width="9.6709023"
       height="9.6709023"
       x="141.57906"
       y="23.558674" />
    <rect
       style="opacity:1;fill:#000000;fill-opacity:0.47222221;fill-rule:nonzero;stroke:#000000;stroke-width:0.329;stroke-miterlimit:4;stroke-dasharray:none;stroke-dashoffset:3.28999996;stroke-opacity:0.39215686"
       id="rect6369-380"
       width="9.6709023"
       height="9.6709023"
       x="76.681755"
       y="60.976406" />
    <rect
       style="opacity:1;fill:#000000;fill-opacity:0.47222221;fill-rule:nonzero;stroke:#000000;stroke-width:0.329;stroke-miterlimit:4;stroke-dasharray:none;stroke-dashoffset:3.28999996;stroke-opacity:0.39215686"
       id="rect6369-47"
       width="9.6709023"
       height="9.6709023"
       x="86.352661"
       y="60.976406" />
    <rect
       style="opacity:1;fill:#000000;fill-opacity:0.47222221;fill-rule:nonzero;stroke:#000000;stroke-width:0.329;stroke-miterlimit:4;stroke-dasharray:none;stroke-dashoffset:3.28999996;stroke-opacity:0.39215686"
       id="rect6369-689"
       width="9.6709023"
       height="9.6709023"
       x="96.02356"
       y="60.976406" />
    <rect
       style="opacity:1;fill:#000000;fill-opacity:0.47222221;fill-rule:nonzero;stroke:#000000;stroke-width:0.329;stroke-miterlimit:4;stroke-dasharray:none;stroke-dashoffset:3.28999996;stroke-opacity:0.39215686"
       id="rect6369-06"
       width="9.6709023"
       height="9.6709023"
       x="105.69446"
       y="60.97641" />
    <rect
       style="opacity:1;fill:#000000;fill-opacity:0.47222221;fill-rule:nonzero;stroke:#000000;stroke-width:0.329;stroke-miterlimit:4;stroke-dasharray:none;stroke-dashoffset:3.28999996;stroke-opacity:0.39215686"
       id="rect6369-87"
       width="9.6709023"
       height="9.6709023"
       x="76.681755"
       y="70.647308" />
    <rect
       style="opacity:1;fill:#000000;fill-opacity:0.47222221;fill-rule:nonzero;stroke:#000000;stroke-width:0.329;stroke-miterlimit:4;stroke-dasharray:none;stroke-dashoffset:3.28999996;stroke-opacity:0.39215686"
       id="rect6369-90"
       width="9.6709023"
       height="9.6709023"
       x="86.352661"
       y="70.647308"
       inkscape:transform-center-x="-10.423512"
       inkscape:transform-center-y="14.967094" />
    <rect
       style="opacity:1;fill:#000000;fill-opacity:0.47222221;fill-rule:nonzero;stroke:#000000;stroke-width:0.329;stroke-miterlimit:4;stroke-dasharray:none;stroke-dashoffset:3.28999996;stroke-opacity:0.39215686"
       id="rect6369-65"
       width="9.6709023"
       height="9.6709023"
       x="123.18665"
       y="74.874428" />
    <rect
       style="opacity:1;fill:#000000;fill-opacity:0.47222221;fill-rule:nonzero;stroke:#000000;stroke-width:0.329;stroke-miterlimit:4;stroke-dasharray:none;stroke-dashoffset:3.28999996;stroke-opacity:0.39215686"
       id="rect6369-26"
       width="9.6709023"
       height="9.6709023"
       x="132.85756"
       y="74.874428" />
    <rect
       style="opacity:1;fill:#000000;fill-opacity:0.47222221;fill-rule:nonzero;stroke:#000000;stroke-width:0.329;stroke-miterlimit:4;stroke-dasharray:none;stroke-dashoffset:3.28999996;stroke-opacity:0.39215686"
       id="rect6369-58"
       width="9.6709023"
       height="9.6709023"
       x="132.85756"
       y="84.545326" />
    <rect
       style="opacity:1;fill:#000000;fill-opacity:0.47222221;fill-rule:nonzero;stroke:#000000;stroke-width:0.329;stroke-miterlimit:4;stroke-dasharray:none;stroke-dashoffset:3.28999996;stroke-opacity:0.39215686"
       id="rect6369-79"
       width="9.6709023"
       height="9.6709023"
       x="123.18665"
       y="84.545326" />
    <rect
       style="opacity:1;fill:#000000;fill-opacity:0.47222221;fill-rule:nonzero;stroke:#000000;stroke-width:0.329;stroke-miterlimit:4;stroke-dasharray:none;stroke-dashoffset:3.28999996;stroke-opacity:0.39215686"
       id="rect6369-60"
       width="9.6709023"
       height="9.6709023"
       x="113.51575"
       y="84.545326" />
    <rect
       style="opacity:1;fill:#000000;fill-opacity:0.47222221;fill-rule:nonzero;stroke:#000000;stroke-width:0.329;stroke-miterlimit:4;stroke-dasharray:none;stroke-dashoffset:3.28999996;stroke-opacity:0.39215686"
       id="rect6369-41"
       width="9.6709023"
       height="9.6709023"
       x="103.84485"
       y="84.545326" />
    <rect
       style="opacity:1;fill:#000000;fill-opacity:0.47222221;fill-rule:nonzero;stroke:#000000;stroke-width:0.329;stroke-miterlimit:4;stroke-dasharray:none;stroke-dashoffset:3.28999996;stroke-opacity:0.39215686"
       id="rect6369-04"
       width="9.6709023"
       height="9.6709023"
       x="29.909586"
       y="85.030663" />
    <rect
       style="opacity:1;fill:#000000;fill-opacity:0.47222221;fill-rule:nonzero;stroke:#000000;stroke-width:0.329;stroke-miterlimit:4;stroke-dasharray:none;stroke-dashoffset:3.28999996;stroke-opacity:0.39215686"
       id="rect6369-870"
       width="9.6709023"
       height="9.6709023"
       x="29.909586"
       y="94.701569" />
    <rect
       style="opacity:1;fill:#000000;fill-opacity:0.47222221;fill-rule:nonzero;stroke:#000000;stroke-width:0.329;stroke-miterlimit:4;stroke-dasharray:none;stroke-dashoffset:3.28999996;stroke-opacity:0.39215686"
       id="rect6369-86"
       width="9.6709023"
       height="9.6709023"
       x="29.909588"
       y="104.37247" />
    <rect
       style="opacity:1;fill:#000000;fill-opacity:0.47222221;fill-rule:nonzero;stroke:#000000;stroke-width:0.329;stroke-miterlimit:4;stroke-dasharray:none;stroke-dashoffset:3.28999996;stroke-opacity:0.39215686"
       id="rect6369-24"
       width="9.6709023"
       height="9.6709023"
       x="39.58049"
       y="104.37247" />
    <rect
       style="opacity:1;fill:#000000;fill-opacity:0.47222221;fill-rule:nonzero;stroke:#000000;stroke-width:0.329;stroke-miterlimit:4;stroke-dasharray:none;stroke-dashoffset:3.28999996;stroke-opacity:0.39215686"
       id="rect6369-793"
       width="9.6709023"
       height="9.6709023"
       x="49.251392"
       y="104.37247" />
    <rect
       style="opacity:1;fill:#000000;fill-opacity:0.47222221;fill-rule:nonzero;stroke:#000000;stroke-width:0.329;stroke-miterlimit:4;stroke-dasharray:none;stroke-dashoffset:3.28999996;stroke-opacity:0.39215686"
       id="rect6369-928"
       width="9.6709023"
       height="9.6709023"
       x="49.251392"
       y="94.701561"
       inkscape:transform-center-x="-16.303441"
       inkscape:transform-center-y="13.096207" />
    <rect
       style="opacity:1;fill:#000000;fill-opacity:0.47222221;fill-rule:nonzero;stroke:#000000;stroke-width:0.329;stroke-miterlimit:4;stroke-dasharray:none;stroke-dashoffset:3.28999996;stroke-opacity:0.39215686"
       id="rect6369-30"
       width="9.6709023"
       height="9.6709023"
       x="58.922295"
       y="104.37247"
       inkscape:transform-center-x="-11.49259"
       inkscape:transform-center-y="10.958051" />
    <rect
       style="opacity:1;fill:#000000;fill-opacity:0.47222221;fill-rule:nonzero;stroke:#000000;stroke-width:0.329;stroke-miterlimit:4;stroke-dasharray:none;stroke-dashoffset:3.28999996;stroke-opacity:0.39215686"
       id="rect6369-17"
       width="9.6709023"
       height="9.6709023"
       x="68.593201"
       y="104.37246" />
    <rect
       style="opacity:1;fill:#000000;fill-opacity:0.47222221;fill-rule:nonzero;stroke:#000000;stroke-width:0.329;stroke-miterlimit:4;stroke-dasharray:none;stroke-dashoffset:3.28999996;stroke-opacity:0.39215686"
       id="rect6369-89"
       width="9.6709023"
       height="9.6709023"
       x="68.593201"
       y="94.701561" />
    <rect
       style="opacity:1;fill:#000000;fill-opacity:0.47222221;fill-rule:nonzero;stroke:#000000;stroke-width:0.329;stroke-miterlimit:4;stroke-dasharray:none;stroke-dashoffset:3.28999996;stroke-opacity:0.39215686"
       id="rect6369-15"
       width="9.6709023"
       height="9.6709023"
       x="68.593201"
       y="85.030663" />
    <rect
       style="opacity:1;fill:#000000;fill-opacity:0.47222221;fill-rule:nonzero;stroke:#000000;stroke-width:0.329;stroke-miterlimit:4;stroke-dasharray:none;stroke-dashoffset:3.28999996;stroke-opacity:0.39215686"
       id="rect6369-492"
       width="9.6709023"
       height="9.6709023"
       x="91.648842"
       y="102.93772" />
    <rect
       style="opacity:1;fill:#000000;fill-opacity:0.47222221;fill-rule:nonzero;stroke:#000000;stroke-width:0.329;stroke-miterlimit:4;stroke-dasharray:none;stroke-dashoffset:3.28999996;stroke-opacity:0.39215686"
       id="rect6369-57"
       width="9.6709023"
       height="9.6709023"
       x="101.31975"
       y="102.93773" />
    <rect
       style="opacity:1;fill:#000000;fill-opacity:0.47222221;fill-rule:nonzero;stroke:#000000;stroke-width:0.329;stroke-miterlimit:4;stroke-dasharray:none;stroke-dashoffset:3.28999996;stroke-opacity:0.39215686"
       id="rect6369-499"
       width="9.6709023"
       height="9.6709023"
       x="110.99065"
       y="102.93773" />
    <rect
       style="opacity:1;fill:#000000;fill-opacity:0.47222221;fill-rule:nonzero;stroke:#000000;stroke-width:0.329;stroke-miterlimit:4;stroke-dasharray:none;stroke-dashoffset:3.28999996;stroke-opacity:0.39215686"
       id="rect6369-45"
       width="9.6709023"
       height="9.6709023"
       x="120.66154"
       y="102.93773" />
    <rect
       style="opacity:1;fill:#000000;fill-opacity:0.47222221;fill-rule:nonzero;stroke:#000000;stroke-width:0.329;stroke-miterlimit:4;stroke-dasharray:none;stroke-dashoffset:3.28999996;stroke-opacity:0.39215686"
       id="rect6369-935"
       width="9.6709023"
       height="9.6709023"
       x="130.33244"
       y="102.93773" />
    <rect
       style="opacity:1;fill:#000000;fill-opacity:0.47222221;fill-rule:nonzero;stroke:#000000;stroke-width:0.329;stroke-miterlimit:4;stroke-dasharray:none;stroke-dashoffset:3.28999996;stroke-opacity:0.39215686"
       id="rect6369-70"
       width="9.6709023"
       height="9.6709023"
       x="140.00334"
       y="102.93772" />
    <rect
       style="opacity:1;fill:#000000;fill-opacity:0.47222221;fill-rule:nonzero;stroke:#000000;stroke-width:0.329;stroke-miterlimit:4;stroke-dasharray:none;stroke-dashoffset:3.28999996;stroke-opacity:0.39215686"
       id="rect6369-81"
       width="9.6709023"
       height="9.6709023"
       x="149.67424"
       y="102.93773" />
    <rect
       style="opacity:1;fill:#000000;fill-opacity:0.47222221;fill-rule:nonzero;stroke:#000000;stroke-width:0.329;stroke-miterlimit:4;stroke-dasharray:none;stroke-dashoffset:3.28999996;stroke-opacity:0.39215686"
       id="rect6369-99"
       width="9.6709023"
       height="9.6709023"
       x="159.34514"
       y="102.93772" />
    <rect
       style="opacity:1;fill:#000000;fill-opacity:0.47222221;fill-rule:nonzero;stroke:#000000;stroke-width:0.329;stroke-miterlimit:4;stroke-dasharray:none;stroke-dashoffset:3.28999996;stroke-opacity:0.39215686"
       id="rect6369-78"
       width="9.6709023"
       height="9.6709023"
       x="169.01604"
       y="102.93773" />
    <text
       xml:space="preserve"
       style="font-style:normal;font-weight:normal;font-size:4.93888855px;line-height:1.25;font-family:sans-serif;letter-spacing:0px;word-spacing:0px;fill:#000000;fill-opacity:0.47222221;stroke:none;stroke-width:0.26458332;"
       x="41.476746"
       y="143.43033"
       id="text4561-7"><tspan
         sodipodi:role="line"
         id="tspan4559-4"
         x="41.476746"
         y="143.43033"
         style="stroke-width:0.26458332;fill:#000000;fill-opacity:0.47222221;">Classer ces figures de la plus grande à la plus petite</tspan></text>
    <rect
       style="opacity:1;fill:#000000;fill-opacity:0.47222221;fill-rule:nonzero;stroke:#000000;stroke-width:0.329;stroke-miterlimit:4;stroke-dasharray:none;stroke-dashoffset:3.28999996;stroke-opacity:0.39215686"
       id="rect6369-03"
       width="9.6709023"
       height="9.6709023"
       x="30.147232"
       y="159.10301" />
    <rect
       style="opacity:1;fill:#000000;fill-opacity:0.47222221;fill-rule:nonzero;stroke:#000000;stroke-width:0.329;stroke-miterlimit:4;stroke-dasharray:none;stroke-dashoffset:3.28999996;stroke-opacity:0.39215686"
       id="rect6369-0-2"
       width="9.6709023"
       height="9.6709023"
       x="30.147232"
       y="168.77393" />
    <rect
       style="opacity:1;fill:#000000;fill-opacity:0.47222221;fill-rule:nonzero;stroke:#000000;stroke-width:0.329;stroke-miterlimit:4;stroke-dasharray:none;stroke-dashoffset:3.28999996;stroke-opacity:0.39215686"
       id="rect6369-5-8"
       width="9.6709023"
       height="9.6709023"
       x="30.147234"
       y="178.44482" />
    <rect
       style="opacity:1;fill:#000000;fill-opacity:0.47222221;fill-rule:nonzero;stroke:#000000;stroke-width:0.329;stroke-miterlimit:4;stroke-dasharray:none;stroke-dashoffset:3.28999996;stroke-opacity:0.39215686"
       id="rect6369-52-0"
       width="9.6709023"
       height="9.6709023"
       x="30.147234"
       y="188.11572" />
    <rect
       style="opacity:1;fill:#000000;fill-opacity:0.47222221;fill-rule:nonzero;stroke:#000000;stroke-width:0.329;stroke-miterlimit:4;stroke-dasharray:none;stroke-dashoffset:3.28999996;stroke-opacity:0.39215686"
       id="rect6369-9-3"
       width="9.6709023"
       height="9.6709023"
       x="39.818134"
       y="159.10301" />
    <rect
       style="opacity:1;fill:#000000;fill-opacity:0.47222221;fill-rule:nonzero;stroke:#000000;stroke-width:0.329;stroke-miterlimit:4;stroke-dasharray:none;stroke-dashoffset:3.28999996;stroke-opacity:0.39215686"
       id="rect6369-02-7"
       width="9.6709023"
       height="9.6709023"
       x="39.818134"
       y="168.77393" />
    <rect
       style="opacity:1;fill:#000000;fill-opacity:0.47222221;fill-rule:nonzero;stroke:#000000;stroke-width:0.329;stroke-miterlimit:4;stroke-dasharray:none;stroke-dashoffset:3.28999996;stroke-opacity:0.39215686"
       id="rect6369-8-0"
       width="9.6709023"
       height="9.6709023"
       x="39.818134"
       y="178.44482"
       inkscape:transform-center-x="-5.078121"
       inkscape:transform-center-y="24.588797" />
    <rect
       style="opacity:1;fill:#000000;fill-opacity:0.47222221;fill-rule:nonzero;stroke:#000000;stroke-width:0.329;stroke-miterlimit:4;stroke-dasharray:none;stroke-dashoffset:3.28999996;stroke-opacity:0.39215686"
       id="rect6369-3-0"
       width="9.6709023"
       height="9.6709023"
       x="39.818138"
       y="188.11572" />
    <rect
       style="opacity:1;fill:#000000;fill-opacity:0.47222221;fill-rule:nonzero;stroke:#000000;stroke-width:0.329;stroke-miterlimit:4;stroke-dasharray:none;stroke-dashoffset:3.28999996;stroke-opacity:0.39215686"
       id="rect6369-80-3"
       width="9.6709023"
       height="9.6709023"
       x="49.489037"
       y="159.10301" />
    <rect
       style="opacity:1;fill:#000000;fill-opacity:0.47222221;fill-rule:nonzero;stroke:#000000;stroke-width:0.329;stroke-miterlimit:4;stroke-dasharray:none;stroke-dashoffset:3.28999996;stroke-opacity:0.39215686"
       id="rect6369-4-4"
       width="9.6709023"
       height="9.6709023"
       x="49.489037"
       y="168.77393" />
    <rect
       style="opacity:1;fill:#000000;fill-opacity:0.47222221;fill-rule:nonzero;stroke:#000000;stroke-width:0.329;stroke-miterlimit:4;stroke-dasharray:none;stroke-dashoffset:3.28999996;stroke-opacity:0.39215686"
       id="rect6369-09-9"
       width="9.6709023"
       height="9.6709023"
       x="49.489037"
       y="178.44482" />
    <rect
       style="opacity:1;fill:#000000;fill-opacity:0.47222221;fill-rule:nonzero;stroke:#000000;stroke-width:0.329;stroke-miterlimit:4;stroke-dasharray:none;stroke-dashoffset:3.28999996;stroke-opacity:0.39215686"
       id="rect6369-1-2"
       width="9.6709023"
       height="9.6709023"
       x="49.489037"
       y="188.11572" />
    <rect
       style="opacity:1;fill:#000000;fill-opacity:0.47222221;fill-rule:nonzero;stroke:#000000;stroke-width:0.329;stroke-miterlimit:4;stroke-dasharray:none;stroke-dashoffset:3.28999996;stroke-opacity:0.39215686"
       id="rect6369-96-7"
       width="9.6709023"
       height="9.6709023"
       x="76.612984"
       y="153.52951" />
    <rect
       style="opacity:1;fill:#000000;fill-opacity:0.47222221;fill-rule:nonzero;stroke:#000000;stroke-width:0.329;stroke-miterlimit:4;stroke-dasharray:none;stroke-dashoffset:3.28999996;stroke-opacity:0.39215686"
       id="rect6369-2-4"
       width="9.6709023"
       height="9.6709023"
       x="86.28389"
       y="153.52951" />
    <rect
       style="opacity:1;fill:#000000;fill-opacity:0.47222221;fill-rule:nonzero;stroke:#000000;stroke-width:0.329;stroke-miterlimit:4;stroke-dasharray:none;stroke-dashoffset:3.28999996;stroke-opacity:0.39215686"
       id="rect6369-54-2"
       width="9.6709023"
       height="9.6709023"
       x="95.954788"
       y="153.52951" />
    <rect
       style="opacity:1;fill:#000000;fill-opacity:0.47222221;fill-rule:nonzero;stroke:#000000;stroke-width:0.329;stroke-miterlimit:4;stroke-dasharray:none;stroke-dashoffset:3.28999996;stroke-opacity:0.39215686"
       id="rect6369-49-5"
       width="9.6709023"
       height="9.6709023"
       x="105.62569"
       y="153.52951" />
    <rect
       style="opacity:1;fill:#000000;fill-opacity:0.47222221;fill-rule:nonzero;stroke:#000000;stroke-width:0.329;stroke-miterlimit:4;stroke-dasharray:none;stroke-dashoffset:3.28999996;stroke-opacity:0.39215686"
       id="rect6369-93-2"
       width="9.6709023"
       height="9.6709023"
       x="115.2966"
       y="153.52951" />
    <rect
       style="opacity:1;fill:#000000;fill-opacity:0.47222221;fill-rule:nonzero;stroke:#000000;stroke-width:0.329;stroke-miterlimit:4;stroke-dasharray:none;stroke-dashoffset:3.28999996;stroke-opacity:0.39215686"
       id="rect6369-6-4"
       width="9.6709023"
       height="9.6709023"
       x="124.96751"
       y="153.52951" />
    <rect
       style="opacity:1;fill:#000000;fill-opacity:0.47222221;fill-rule:nonzero;stroke:#000000;stroke-width:0.329;stroke-miterlimit:4;stroke-dasharray:none;stroke-dashoffset:3.28999996;stroke-opacity:0.39215686"
       id="rect6369-05-4"
       width="9.6709023"
       height="9.6709023"
       x="76.612991"
       y="163.20041" />
    <rect
       style="opacity:1;fill:#000000;fill-opacity:0.47222221;fill-rule:nonzero;stroke:#000000;stroke-width:0.329;stroke-miterlimit:4;stroke-dasharray:none;stroke-dashoffset:3.28999996;stroke-opacity:0.39215686"
       id="rect6369-029-3"
       width="9.6709023"
       height="9.6709023"
       x="86.28389"
       y="163.20041" />
    <rect
       style="opacity:1;fill:#000000;fill-opacity:0.47222221;fill-rule:nonzero;stroke:#000000;stroke-width:0.329;stroke-miterlimit:4;stroke-dasharray:none;stroke-dashoffset:3.28999996;stroke-opacity:0.39215686"
       id="rect6369-43-8"
       width="9.6709023"
       height="9.6709023"
       x="95.954788"
       y="163.20041" />
    <rect
       style="opacity:1;fill:#000000;fill-opacity:0.47222221;fill-rule:nonzero;stroke:#000000;stroke-width:0.329;stroke-miterlimit:4;stroke-dasharray:none;stroke-dashoffset:3.28999996;stroke-opacity:0.39215686"
       id="rect6369-51-6"
       width="9.6709023"
       height="9.6709023"
       x="105.62569"
       y="163.20041" />
    <rect
       style="opacity:1;fill:#000000;fill-opacity:0.47222221;fill-rule:nonzero;stroke:#000000;stroke-width:0.329;stroke-miterlimit:4;stroke-dasharray:none;stroke-dashoffset:3.28999996;stroke-opacity:0.39215686"
       id="rect6369-7-0"
       width="9.6709023"
       height="9.6709023"
       x="115.2966"
       y="163.20041" />
    <rect
       style="opacity:1;fill:#000000;fill-opacity:0.47222221;fill-rule:nonzero;stroke:#000000;stroke-width:0.329;stroke-miterlimit:4;stroke-dasharray:none;stroke-dashoffset:3.28999996;stroke-opacity:0.39215686"
       id="rect6369-431-8"
       width="9.6709023"
       height="9.6709023"
       x="124.96751"
       y="163.20041" />
    <rect
       style="opacity:1;fill:#000000;fill-opacity:0.47222221;fill-rule:nonzero;stroke:#000000;stroke-width:0.329;stroke-miterlimit:4;stroke-dasharray:none;stroke-dashoffset:3.28999996;stroke-opacity:0.39215686"
       id="rect6369-46-9"
       width="9.6709023"
       height="9.6709023"
       x="154.65569"
       y="148.98593" />
    <rect
       style="opacity:1;fill:#000000;fill-opacity:0.47222221;fill-rule:nonzero;stroke:#000000;stroke-width:0.329;stroke-miterlimit:4;stroke-dasharray:none;stroke-dashoffset:3.28999996;stroke-opacity:0.39215686"
       id="rect6369-94-2"
       width="9.6709023"
       height="9.6709023"
       x="154.65569"
       y="158.65683" />
    <rect
       style="opacity:1;fill:#000000;fill-opacity:0.47222221;fill-rule:nonzero;stroke:#000000;stroke-width:0.329;stroke-miterlimit:4;stroke-dasharray:none;stroke-dashoffset:3.28999996;stroke-opacity:0.39215686"
       id="rect6369-22-2"
       width="9.6709023"
       height="9.6709023"
       x="164.32658"
       y="158.65683" />
    <rect
       style="opacity:1;fill:#000000;fill-opacity:0.47222221;fill-rule:nonzero;stroke:#000000;stroke-width:0.329;stroke-miterlimit:4;stroke-dasharray:none;stroke-dashoffset:3.28999996;stroke-opacity:0.39215686"
       id="rect6369-64-3"
       width="9.6709023"
       height="9.6709023"
       x="173.99748"
       y="158.65683" />
    <rect
       style="opacity:1;fill:#000000;fill-opacity:0.47222221;fill-rule:nonzero;stroke:#000000;stroke-width:0.329;stroke-miterlimit:4;stroke-dasharray:none;stroke-dashoffset:3.28999996;stroke-opacity:0.39215686"
       id="rect6369-12-1"
       width="9.6709023"
       height="9.6709023"
       x="154.65569"
       y="168.32773" />
    <rect
       style="opacity:1;fill:#000000;fill-opacity:0.47222221;fill-rule:nonzero;stroke:#000000;stroke-width:0.329;stroke-miterlimit:4;stroke-dasharray:none;stroke-dashoffset:3.28999996;stroke-opacity:0.39215686"
       id="rect6369-88-8"
       width="9.6709023"
       height="9.6709023"
       x="154.65569"
       y="177.99863" />
    <rect
       style="opacity:1;fill:#000000;fill-opacity:0.47222221;fill-rule:nonzero;stroke:#000000;stroke-width:0.329;stroke-miterlimit:4;stroke-dasharray:none;stroke-dashoffset:3.28999996;stroke-opacity:0.39215686"
       id="rect6369-92-3"
       width="9.6709023"
       height="9.6709023"
       x="154.65569"
       y="187.66953" />
    <rect
       style="opacity:1;fill:#000000;fill-opacity:0.47222221;fill-rule:nonzero;stroke:#000000;stroke-width:0.329;stroke-miterlimit:4;stroke-dasharray:none;stroke-dashoffset:3.28999996;stroke-opacity:0.39215686"
       id="rect6369-888-4"
       width="9.6709023"
       height="9.6709023"
       x="144.98479"
       y="177.99864" />
    <rect
       style="opacity:1;fill:#000000;fill-opacity:0.47222221;fill-rule:nonzero;stroke:#000000;stroke-width:0.329;stroke-miterlimit:4;stroke-dasharray:none;stroke-dashoffset:3.28999996;stroke-opacity:0.39215686"
       id="rect6369-68-2"
       width="9.6709023"
       height="9.6709023"
       x="164.32658"
       y="187.66953" />
    <rect
       style="opacity:1;fill:#000000;fill-opacity:0.47222221;fill-rule:nonzero;stroke:#000000;stroke-width:0.329;stroke-miterlimit:4;stroke-dasharray:none;stroke-dashoffset:3.28999996;stroke-opacity:0.39215686"
       id="rect6369-38-2"
       width="9.6709023"
       height="9.6709023"
       x="173.99748"
       y="187.66954" />
    <rect
       style="opacity:1;fill:#000000;fill-opacity:0.47222221;fill-rule:nonzero;stroke:#000000;stroke-width:0.329;stroke-miterlimit:4;stroke-dasharray:none;stroke-dashoffset:3.28999996;stroke-opacity:0.39215686"
       id="rect6369-33-4"
       width="9.6709023"
       height="9.6709023"
       x="144.98479"
       y="148.98593" />
    <rect
       style="opacity:1;fill:#000000;fill-opacity:0.47222221;fill-rule:nonzero;stroke:#000000;stroke-width:0.329;stroke-miterlimit:4;stroke-dasharray:none;stroke-dashoffset:3.28999996;stroke-opacity:0.39215686"
       id="rect6369-380-5"
       width="9.6709023"
       height="9.6709023"
       x="80.087486"
       y="186.40366" />
    <rect
       style="opacity:1;fill:#000000;fill-opacity:0.47222221;fill-rule:nonzero;stroke:#000000;stroke-width:0.329;stroke-miterlimit:4;stroke-dasharray:none;stroke-dashoffset:3.28999996;stroke-opacity:0.39215686"
       id="rect6369-47-1"
       width="9.6709023"
       height="9.6709023"
       x="89.758392"
       y="186.40366" />
    <rect
       style="opacity:1;fill:#000000;fill-opacity:0.47222221;fill-rule:nonzero;stroke:#000000;stroke-width:0.329;stroke-miterlimit:4;stroke-dasharray:none;stroke-dashoffset:3.28999996;stroke-opacity:0.39215686"
       id="rect6369-689-7"
       width="9.6709023"
       height="9.6709023"
       x="99.429298"
       y="186.40366" />
    <rect
       style="opacity:1;fill:#000000;fill-opacity:0.47222221;fill-rule:nonzero;stroke:#000000;stroke-width:0.329;stroke-miterlimit:4;stroke-dasharray:none;stroke-dashoffset:3.28999996;stroke-opacity:0.39215686"
       id="rect6369-06-5"
       width="9.6709023"
       height="9.6709023"
       x="109.10019"
       y="186.40366" />
    <rect
       style="opacity:1;fill:#000000;fill-opacity:0.47222221;fill-rule:nonzero;stroke:#000000;stroke-width:0.329;stroke-miterlimit:4;stroke-dasharray:none;stroke-dashoffset:3.28999996;stroke-opacity:0.39215686"
       id="rect6369-87-7"
       width="9.6709023"
       height="9.6709023"
       x="80.087486"
       y="196.07455" />
    <rect
       style="opacity:1;fill:#000000;fill-opacity:0.47222221;fill-rule:nonzero;stroke:#000000;stroke-width:0.329;stroke-miterlimit:4;stroke-dasharray:none;stroke-dashoffset:3.28999996;stroke-opacity:0.39215686"
       id="rect6369-90-1"
       width="9.6709023"
       height="9.6709023"
       x="89.758392"
       y="196.07455"
       inkscape:transform-center-x="-10.423512"
       inkscape:transform-center-y="14.967094" />
    <rect
       style="opacity:1;fill:#000000;fill-opacity:0.47222221;fill-rule:nonzero;stroke:#000000;stroke-width:0.329;stroke-miterlimit:4;stroke-dasharray:none;stroke-dashoffset:3.28999996;stroke-opacity:0.39215686"
       id="rect6369-65-6"
       width="9.6709023"
       height="9.6709023"
       x="126.59239"
       y="200.30168" />
    <rect
       style="opacity:1;fill:#000000;fill-opacity:0.47222221;fill-rule:nonzero;stroke:#000000;stroke-width:0.329;stroke-miterlimit:4;stroke-dasharray:none;stroke-dashoffset:3.28999996;stroke-opacity:0.39215686"
       id="rect6369-26-9"
       width="9.6709023"
       height="9.6709023"
       x="136.26329"
       y="200.30168" />
    <rect
       style="opacity:1;fill:#000000;fill-opacity:0.47222221;fill-rule:nonzero;stroke:#000000;stroke-width:0.329;stroke-miterlimit:4;stroke-dasharray:none;stroke-dashoffset:3.28999996;stroke-opacity:0.39215686"
       id="rect6369-58-8"
       width="9.6709023"
       height="9.6709023"
       x="136.26329"
       y="209.97258" />
    <rect
       style="opacity:1;fill:#000000;fill-opacity:0.47222221;fill-rule:nonzero;stroke:#000000;stroke-width:0.329;stroke-miterlimit:4;stroke-dasharray:none;stroke-dashoffset:3.28999996;stroke-opacity:0.39215686"
       id="rect6369-79-1"
       width="9.6709023"
       height="9.6709023"
       x="126.59239"
       y="209.97258" />
    <rect
       style="opacity:1;fill:#000000;fill-opacity:0.47222221;fill-rule:nonzero;stroke:#000000;stroke-width:0.329;stroke-miterlimit:4;stroke-dasharray:none;stroke-dashoffset:3.28999996;stroke-opacity:0.39215686"
       id="rect6369-60-3"
       width="9.6709023"
       height="9.6709023"
       x="116.92149"
       y="209.97258" />
    <rect
       style="opacity:1;fill:#000000;fill-opacity:0.47222221;fill-rule:nonzero;stroke:#000000;stroke-width:0.329;stroke-miterlimit:4;stroke-dasharray:none;stroke-dashoffset:3.28999996;stroke-opacity:0.39215686"
       id="rect6369-41-3"
       width="9.6709023"
       height="9.6709023"
       x="107.25058"
       y="209.97258" />
    <rect
       style="opacity:1;fill:#000000;fill-opacity:0.47222221;fill-rule:nonzero;stroke:#000000;stroke-width:0.329;stroke-miterlimit:4;stroke-dasharray:none;stroke-dashoffset:3.28999996;stroke-opacity:0.39215686"
       id="rect6369-04-3"
       width="9.6709023"
       height="9.6709023"
       x="33.315319"
       y="210.45792" />
    <rect
       style="opacity:1;fill:#000000;fill-opacity:0.47222221;fill-rule:nonzero;stroke:#000000;stroke-width:0.329;stroke-miterlimit:4;stroke-dasharray:none;stroke-dashoffset:3.28999996;stroke-opacity:0.39215686"
       id="rect6369-870-7"
       width="9.6709023"
       height="9.6709023"
       x="33.315319"
       y="220.12881" />
    <rect
       style="opacity:1;fill:#000000;fill-opacity:0.47222221;fill-rule:nonzero;stroke:#000000;stroke-width:0.329;stroke-miterlimit:4;stroke-dasharray:none;stroke-dashoffset:3.28999996;stroke-opacity:0.39215686"
       id="rect6369-86-9"
       width="9.6709023"
       height="9.6709023"
       x="33.315319"
       y="229.79971" />
    <rect
       style="opacity:1;fill:#000000;fill-opacity:0.47222221;fill-rule:nonzero;stroke:#000000;stroke-width:0.329;stroke-miterlimit:4;stroke-dasharray:none;stroke-dashoffset:3.28999996;stroke-opacity:0.39215686"
       id="rect6369-24-8"
       width="9.6709023"
       height="9.6709023"
       x="42.986221"
       y="229.79971" />
    <rect
       style="opacity:1;fill:#000000;fill-opacity:0.47222221;fill-rule:nonzero;stroke:#000000;stroke-width:0.329;stroke-miterlimit:4;stroke-dasharray:none;stroke-dashoffset:3.28999996;stroke-opacity:0.39215686"
       id="rect6369-793-6"
       width="9.6709023"
       height="9.6709023"
       x="52.657124"
       y="229.79971" />
    <rect
       style="opacity:1;fill:#000000;fill-opacity:0.47222221;fill-rule:nonzero;stroke:#000000;stroke-width:0.329;stroke-miterlimit:4;stroke-dasharray:none;stroke-dashoffset:3.28999996;stroke-opacity:0.39215686"
       id="rect6369-928-7"
       width="9.6709023"
       height="9.6709023"
       x="52.657124"
       y="220.12881"
       inkscape:transform-center-x="-16.303441"
       inkscape:transform-center-y="13.096207" />
    <rect
       style="opacity:1;fill:#000000;fill-opacity:0.47222221;fill-rule:nonzero;stroke:#000000;stroke-width:0.329;stroke-miterlimit:4;stroke-dasharray:none;stroke-dashoffset:3.28999996;stroke-opacity:0.39215686"
       id="rect6369-30-0"
       width="9.6709023"
       height="9.6709023"
       x="62.328026"
       y="229.79971"
       inkscape:transform-center-x="-11.49259"
       inkscape:transform-center-y="10.958051" />
    <rect
       style="opacity:1;fill:#000000;fill-opacity:0.47222221;fill-rule:nonzero;stroke:#000000;stroke-width:0.329;stroke-miterlimit:4;stroke-dasharray:none;stroke-dashoffset:3.28999996;stroke-opacity:0.39215686"
       id="rect6369-17-4"
       width="9.6709023"
       height="9.6709023"
       x="71.998932"
       y="229.79971" />
    <rect
       style="opacity:1;fill:#000000;fill-opacity:0.47222221;fill-rule:nonzero;stroke:#000000;stroke-width:0.329;stroke-miterlimit:4;stroke-dasharray:none;stroke-dashoffset:3.28999996;stroke-opacity:0.39215686"
       id="rect6369-89-8"
       width="9.6709023"
       height="9.6709023"
       x="71.998932"
       y="220.12881" />
    <rect
       style="opacity:1;fill:#000000;fill-opacity:0.47222221;fill-rule:nonzero;stroke:#000000;stroke-width:0.329;stroke-miterlimit:4;stroke-dasharray:none;stroke-dashoffset:3.28999996;stroke-opacity:0.39215686"
       id="rect6369-15-4"
       width="9.6709023"
       height="9.6709023"
       x="71.998932"
       y="210.45792" />
    <rect
       style="opacity:1;fill:#000000;fill-opacity:0.47222221;fill-rule:nonzero;stroke:#000000;stroke-width:0.329;stroke-miterlimit:4;stroke-dasharray:none;stroke-dashoffset:3.28999996;stroke-opacity:0.39215686"
       id="rect6369-492-8"
       width="9.6709023"
       height="9.6709023"
       x="95.054581"
       y="228.36497" />
    <rect
       style="opacity:1;fill:#000000;fill-opacity:0.47222221;fill-rule:nonzero;stroke:#000000;stroke-width:0.329;stroke-miterlimit:4;stroke-dasharray:none;stroke-dashoffset:3.28999996;stroke-opacity:0.39215686"
       id="rect6369-57-1"
       width="9.6709023"
       height="9.6709023"
       x="104.72549"
       y="228.36497" />
    <rect
       style="opacity:1;fill:#000000;fill-opacity:0.47222221;fill-rule:nonzero;stroke:#000000;stroke-width:0.329;stroke-miterlimit:4;stroke-dasharray:none;stroke-dashoffset:3.28999996;stroke-opacity:0.39215686"
       id="rect6369-499-6"
       width="9.6709023"
       height="9.6709023"
       x="114.39638"
       y="228.36497" />
    <rect
       style="opacity:1;fill:#000000;fill-opacity:0.47222221;fill-rule:nonzero;stroke:#000000;stroke-width:0.329;stroke-miterlimit:4;stroke-dasharray:none;stroke-dashoffset:3.28999996;stroke-opacity:0.39215686"
       id="rect6369-45-8"
       width="9.6709023"
       height="9.6709023"
       x="124.06727"
       y="228.36497" />
    <rect
       style="opacity:1;fill:#000000;fill-opacity:0.47222221;fill-rule:nonzero;stroke:#000000;stroke-width:0.329;stroke-miterlimit:4;stroke-dasharray:none;stroke-dashoffset:3.28999996;stroke-opacity:0.39215686"
       id="rect6369-935-5"
       width="9.6709023"
       height="9.6709023"
       x="133.73817"
       y="228.36497" />
    <rect
       style="opacity:1;fill:#000000;fill-opacity:0.47222221;fill-rule:nonzero;stroke:#000000;stroke-width:0.329;stroke-miterlimit:4;stroke-dasharray:none;stroke-dashoffset:3.28999996;stroke-opacity:0.39215686"
       id="rect6369-70-2"
       width="9.6709023"
       height="9.6709023"
       x="143.40909"
       y="228.36497" />
    <rect
       style="opacity:1;fill:#000000;fill-opacity:0.47222221;fill-rule:nonzero;stroke:#000000;stroke-width:0.329;stroke-miterlimit:4;stroke-dasharray:none;stroke-dashoffset:3.28999996;stroke-opacity:0.39215686"
       id="rect6369-81-1"
       width="9.6709023"
       height="9.6709023"
       x="153.07997"
       y="228.36497" />
    <rect
       style="opacity:1;fill:#000000;fill-opacity:0.47222221;fill-rule:nonzero;stroke:#000000;stroke-width:0.329;stroke-miterlimit:4;stroke-dasharray:none;stroke-dashoffset:3.28999996;stroke-opacity:0.39215686"
       id="rect6369-99-9"
       width="9.6709023"
       height="9.6709023"
       x="162.75087"
       y="228.36497" />
    <rect
       style="opacity:1;fill:#000000;fill-opacity:0.47222221;fill-rule:nonzero;stroke:#000000;stroke-width:0.329;stroke-miterlimit:4;stroke-dasharray:none;stroke-dashoffset:3.28999996;stroke-opacity:0.39215686"
       id="rect6369-78-9"
       width="9.6709023"
       height="9.6709023"
       x="172.42177"
       y="228.36497" />
  </g>
</svg>
