<?xml version="1.0" encoding="UTF-8" standalone="no"?>
<!-- Created with Inkscape (http://www.inkscape.org/) -->

<svg
   xmlns:dc="http://purl.org/dc/elements/1.1/"
   xmlns:cc="http://creativecommons.org/ns#"
   xmlns:rdf="http://www.w3.org/1999/02/22-rdf-syntax-ns#"
   xmlns:svg="http://www.w3.org/2000/svg"
   xmlns="http://www.w3.org/2000/svg"
   xmlns:sodipodi="http://sodipodi.sourceforge.net/DTD/sodipodi-0.dtd"
   xmlns:inkscape="http://www.inkscape.org/namespaces/inkscape"
   width="210mm"
   height="297mm"
   viewBox="0 0 210 297"
   version="1.1"
   id="svg6349"
   sodipodi:docname="E4.svg"
   inkscape:version="0.92.1 r15371">
  <defs
     id="defs6343" />
  <sodipodi:namedview
     id="base"
     pagecolor="#ffffff"
     bordercolor="#666666"
     borderopacity="1.0"
     inkscape:pageopacity="0.0"
     inkscape:pageshadow="2"
     inkscape:zoom="0.5"
     inkscape:cx="469.39958"
     inkscape:cy="754.45366"
     inkscape:document-units="mm"
     inkscape:current-layer="layer1"
     showgrid="false"
     inkscape:window-width="1366"
     inkscape:window-height="704"
     inkscape:window-x="0"
     inkscape:window-y="27"
     inkscape:window-maximized="1"
     showguides="false" />
  <metadata
     id="metadata6346">
    <rdf:RDF>
      <cc:Work
         rdf:about="">
        <dc:format>image/svg+xml</dc:format>
        <dc:type
           rdf:resource="http://purl.org/dc/dcmitype/StillImage" />
        <dc:title />
      </cc:Work>
    </rdf:RDF>
  </metadata>
  <g
     inkscape:label="Calque 1"
     inkscape:groupmode="layer"
     id="layer1">
    <rect
       style="opacity:1;fill:#000000;fill-opacity:0.55555558;fill-rule:nonzero;stroke:#000000;stroke-width:1.03662658;stroke-miterlimit:4;stroke-dasharray:none;stroke-dashoffset:3.28999996;stroke-opacity:0.39215686"
       id="rect6369-05"
       width="48.963375"
       height="18.963373"
       x="33.436718"
       y="33.445122" />
    <text
       xml:space="preserve"
       style="font-style:normal;font-weight:normal;font-size:4.93888855px;line-height:1.25;font-family:sans-serif;letter-spacing:0px;word-spacing:0px;fill:#000000;fill-opacity:1;stroke:none;stroke-width:0.26458332"
       x="22.450642"
       y="14.121931"
       id="text176"><tspan
         sodipodi:role="line"
         id="tspan174"
         x="22.450642"
         y="14.121931"
         style="stroke-width:0.26458332">Calcule l'aire de cette figure</tspan></text>
    <rect
       style="opacity:1;fill:#000000;fill-opacity:0.55555558;fill-rule:nonzero;stroke:#000000;stroke-width:1.03662658;stroke-miterlimit:4;stroke-dasharray:none;stroke-dashoffset:3.28999996;stroke-opacity:0.39215686"
       id="rect6369-05-3"
       width="48.963375"
       height="18.963373"
       x="125.79782"
       y="33.505215" />
    <text
       xml:space="preserve"
       style="font-style:normal;font-weight:normal;font-size:4.93888855px;line-height:1.25;font-family:sans-serif;letter-spacing:0px;word-spacing:0px;fill:#000000;fill-opacity:1;stroke:none;stroke-width:0.26458332"
       x="114.81174"
       y="14.182027"
       id="text176-6"><tspan
         sodipodi:role="line"
         id="tspan174-7"
         x="114.81174"
         y="14.182027"
         style="stroke-width:0.26458332">Calcule l'aire de cette figure</tspan></text>
    <rect
       style="opacity:1;fill:#000000;fill-opacity:0.55555558;fill-rule:nonzero;stroke:#000000;stroke-width:1.03662658;stroke-miterlimit:4;stroke-dasharray:none;stroke-dashoffset:3.28999996;stroke-opacity:0.39215686"
       id="rect6369-05-5"
       width="48.963375"
       height="18.963373"
       x="33.219276"
       y="87.356705" />
    <text
       xml:space="preserve"
       style="font-style:normal;font-weight:normal;font-size:4.93888855px;line-height:1.25;font-family:sans-serif;letter-spacing:0px;word-spacing:0px;fill:#000000;fill-opacity:0.55555558;stroke:none;stroke-width:0.26458332;"
       x="22.233196"
       y="68.033516"
       id="text176-3"><tspan
         sodipodi:role="line"
         id="tspan174-5"
         x="22.233196"
         y="68.033516"
         style="stroke-width:0.26458332;fill:#000000;fill-opacity:0.55555558;">Calcule l'aire de cette figure</tspan></text>
    <rect
       style="opacity:1;fill:#000000;fill-opacity:0.55555558;fill-rule:nonzero;stroke:#000000;stroke-width:1.03662658;stroke-miterlimit:4;stroke-dasharray:none;stroke-dashoffset:3.28999996;stroke-opacity:0.39215686"
       id="rect6369-05-3-6"
       width="48.963375"
       height="18.963373"
       x="125.58038"
       y="87.416801" />
    <text
       xml:space="preserve"
       style="font-style:normal;font-weight:normal;font-size:4.93888855px;line-height:1.25;font-family:sans-serif;letter-spacing:0px;word-spacing:0px;fill:#000000;fill-opacity:0.55555558;stroke:none;stroke-width:0.26458332;"
       x="114.59431"
       y="68.093605"
       id="text176-6-2"><tspan
         sodipodi:role="line"
         id="tspan174-7-9"
         x="114.59431"
         y="68.093605"
         style="stroke-width:0.26458332;fill:#000000;fill-opacity:0.55555558;">Calcule l'aire de cette figure</tspan></text>
    <rect
       style="opacity:1;fill:#000000;fill-opacity:0.55555558;fill-rule:nonzero;stroke:#000000;stroke-width:1.03662658;stroke-miterlimit:4;stroke-dasharray:none;stroke-dashoffset:3.28999996;stroke-opacity:0.39215686"
       id="rect6369-05-1"
       width="48.963375"
       height="18.963373"
       x="33.219276"
       y="202.60333" />
    <text
       xml:space="preserve"
       style="font-style:normal;font-weight:normal;font-size:4.93888855px;line-height:1.25;font-family:sans-serif;letter-spacing:0px;word-spacing:0px;fill:#000000;fill-opacity:0.55555558;stroke:none;stroke-width:0.26458332;"
       x="22.233198"
       y="183.28014"
       id="text176-2"><tspan
         sodipodi:role="line"
         id="tspan174-70"
         x="22.233198"
         y="183.28014"
         style="stroke-width:0.26458332;fill:#000000;fill-opacity:0.55555558;">Calcule l'aire de cette figure</tspan></text>
    <rect
       style="opacity:1;fill:#000000;fill-opacity:0.55555558;fill-rule:nonzero;stroke:#000000;stroke-width:1.03662658;stroke-miterlimit:4;stroke-dasharray:none;stroke-dashoffset:3.28999996;stroke-opacity:0.39215686"
       id="rect6369-05-3-9"
       width="48.963375"
       height="18.963373"
       x="125.58038"
       y="202.66342" />
    <text
       xml:space="preserve"
       style="font-style:normal;font-weight:normal;font-size:4.93888855px;line-height:1.25;font-family:sans-serif;letter-spacing:0px;word-spacing:0px;fill:#000000;fill-opacity:0.55555558;stroke:none;stroke-width:0.26458332;"
       x="114.59431"
       y="183.34024"
       id="text176-6-3"><tspan
         sodipodi:role="line"
         id="tspan174-7-6"
         x="114.59431"
         y="183.34024"
         style="stroke-width:0.26458332;fill:#000000;fill-opacity:0.55555558;">Calcule l'aire de cette figure</tspan></text>
    <rect
       style="opacity:1;fill:#000000;fill-opacity:0.55555558;fill-rule:nonzero;stroke:#000000;stroke-width:1.03662658;stroke-miterlimit:4;stroke-dasharray:none;stroke-dashoffset:3.28999996;stroke-opacity:0.39215686"
       id="rect6369-05-0"
       width="48.963375"
       height="18.963373"
       x="32.927605"
       y="261.94699" />
    <text
       xml:space="preserve"
       style="font-style:normal;font-weight:normal;font-size:4.93888855px;line-height:1.25;font-family:sans-serif;letter-spacing:0px;word-spacing:0px;fill:#000000;fill-opacity:0.55555558;stroke:none;stroke-width:0.26458332;"
       x="21.941526"
       y="242.62375"
       id="text176-62"><tspan
         sodipodi:role="line"
         id="tspan174-6"
         x="21.941526"
         y="242.62375"
         style="stroke-width:0.26458332;fill:#000000;fill-opacity:0.55555558;">Calcule l'aire de cette figure</tspan></text>
    <rect
       style="opacity:1;fill:#000000;fill-opacity:0.55555558;fill-rule:nonzero;stroke:#000000;stroke-width:1.03662658;stroke-miterlimit:4;stroke-dasharray:none;stroke-dashoffset:3.28999996;stroke-opacity:0.39215686"
       id="rect6369-05-3-1"
       width="48.963375"
       height="18.963373"
       x="125.2887"
       y="262.00708" />
    <text
       xml:space="preserve"
       style="font-style:normal;font-weight:normal;font-size:4.93888855px;line-height:1.25;font-family:sans-serif;letter-spacing:0px;word-spacing:0px;fill:#000000;fill-opacity:0.55555558;stroke:none;stroke-width:0.26458332;"
       x="114.30263"
       y="242.68384"
       id="text176-6-8"><tspan
         sodipodi:role="line"
         id="tspan174-7-7"
         x="114.30263"
         y="242.68384"
         style="stroke-width:0.26458332;fill:#000000;fill-opacity:0.55555558;">Calcule l'aire de cette figure</tspan></text>
    <rect
       style="opacity:1;fill:#000000;fill-opacity:0.55555558;fill-rule:nonzero;stroke:#000000;stroke-width:1.03662658;stroke-miterlimit:4;stroke-dasharray:none;stroke-dashoffset:3.28999996;stroke-opacity:0.39215686"
       id="rect6369-05-9"
       width="48.963375"
       height="18.963373"
       x="33.593449"
       y="144.98003" />
    <text
       xml:space="preserve"
       style="font-style:normal;font-weight:normal;font-size:4.93888855px;line-height:1.25;font-family:sans-serif;letter-spacing:0px;word-spacing:0px;fill:#000000;fill-opacity:0.55555558;stroke:none;stroke-width:0.26458332;"
       x="22.607374"
       y="125.65682"
       id="text176-20"><tspan
         sodipodi:role="line"
         id="tspan174-2"
         x="22.607374"
         y="125.65682"
         style="stroke-width:0.26458332;fill:#000000;fill-opacity:0.55555558;">Calcule l'aire de cette figure</tspan></text>
    <rect
       style="opacity:1;fill:#000000;fill-opacity:0.55555558;fill-rule:nonzero;stroke:#000000;stroke-width:1.03662658;stroke-miterlimit:4;stroke-dasharray:none;stroke-dashoffset:3.28999996;stroke-opacity:0.39215686"
       id="rect6369-05-3-3"
       width="48.963375"
       height="18.963373"
       x="125.95456"
       y="145.04012" />
    <text
       xml:space="preserve"
       style="font-style:normal;font-weight:normal;font-size:4.93888855px;line-height:1.25;font-family:sans-serif;letter-spacing:0px;word-spacing:0px;fill:#000000;fill-opacity:0.55555558;stroke:none;stroke-width:0.26458332;"
       x="114.96848"
       y="125.71691"
       id="text176-6-7"><tspan
         sodipodi:role="line"
         id="tspan174-7-5"
         x="114.96848"
         y="125.71691"
         style="stroke-width:0.26458332;fill:#000000;fill-opacity:0.55555558;">Calcule l'aire de cette figure</tspan></text>
  </g>
</svg>
